<?xml version="1.0" encoding="UTF-8" standalone="no"?>
<!-- Created with Inkscape (http://www.inkscape.org/) -->

<svg
   width="227.93211mm"
   height="273.98367mm"
   viewBox="0 0 227.93211 273.98368"
   version="1.1"
   id="svg23116"
   xml:space="preserve"
   sodipodi:docname="monstera.svg"
   inkscape:version="1.2.2 (b0a8486541, 2022-12-01)"
   xmlns:inkscape="http://www.inkscape.org/namespaces/inkscape"
   xmlns:sodipodi="http://sodipodi.sourceforge.net/DTD/sodipodi-0.dtd"
   xmlns:xlink="http://www.w3.org/1999/xlink"
   xmlns="http://www.w3.org/2000/svg"
   xmlns:svg="http://www.w3.org/2000/svg"><sodipodi:namedview
     id="namedview23118"
     pagecolor="#ffffff"
     bordercolor="#000000"
     borderopacity="0.25"
     inkscape:showpageshadow="2"
     inkscape:pageopacity="0.0"
     inkscape:pagecheckerboard="0"
     inkscape:deskcolor="#d1d1d1"
     inkscape:document-units="mm"
     showgrid="false"
     showguides="true"
     inkscape:zoom="0.56879138"
     inkscape:cx="452.71432"
     inkscape:cy="426.34261"
     inkscape:window-width="1707"
     inkscape:window-height="980"
     inkscape:window-x="0"
     inkscape:window-y="0"
     inkscape:window-maximized="1"
     inkscape:current-layer="layer1"><inkscape:grid
       type="xygrid"
       id="grid30172"
       originx="19.631416"
       originy="-54.634846" /><sodipodi:guide
       position="102.85425,38.036753"
       orientation="1,0"
       id="guide30178"
       inkscape:locked="false" /></sodipodi:namedview><defs
     id="defs23113"><linearGradient
       id="linearGradient58565">
      <stop
   style="stop-color:#ffffff;stop-opacity:1;"
   offset="0"
   id="stop58559" />
      <stop
   style="stop-color:#7bbe92;stop-opacity:1"
   offset=".5"
   id="stop58561" />
      <stop
   style="stop-color:#37a276;stop-opacity:1"
   offset="1"
   id="stop58563" />
    </linearGradient><linearGradient
       id="linearGradient58557">
      <stop
   style="stop-color:#ffffff;stop-opacity:1;"
   offset="0"
   id="stop58551" />
      <stop
   style="stop-color:#7bbe92;stop-opacity:1"
   offset=".5"
   id="stop58553" />
      <stop
   style="stop-color:#37a276;stop-opacity:1"
   offset="1"
   id="stop58555" />
    </linearGradient><linearGradient
       id="linearGradient58549">
      <stop
   style="stop-color:#68934a;stop-opacity:0.99215686;"
   offset="0"
   id="stop58543" />
      <stop
   style="stop-color:#9dc481;stop-opacity:1;"
   offset="0.5"
   id="stop58545" />
      <stop
   style="stop-color:#5b8936;stop-opacity:1;"
   offset="1"
   id="stop58547" />
    </linearGradient><linearGradient
       id="linearGradient58541">
      <stop
   style="stop-color:#68934a;stop-opacity:0.99215686;"
   offset="0"
   id="stop58535" />
      <stop
   style="stop-color:#9dc481;stop-opacity:1;"
   offset="0.5"
   id="stop58537" />
      <stop
   style="stop-color:#5b8936;stop-opacity:1;"
   offset="1"
   id="stop58539" />
    </linearGradient><linearGradient
       id="linearGradient58533">
      <stop
   style="stop-color:#569b42;stop-opacity:0.9921568;"
   offset="0"
   id="stop58527" />
      <stop
   style="stop-color:#8cd075;stop-opacity:1;"
   offset="0.5"
   id="stop58529" />
      <stop
   style="stop-color:#488936;stop-opacity:1;"
   offset="1"
   id="stop58531" />
    </linearGradient><linearGradient
       id="linearGradient58525">
      <stop
   style="stop-color:#3ba978;stop-opacity:1"
   offset="0"
   id="stop58519" />
      <stop
   style="stop-color:#ffffff;stop-opacity:1;"
   offset="0.5"
   id="stop58521" />
      <stop
   style="stop-color:#37a276;stop-opacity:1"
   offset="1"
   id="stop58523" />
    </linearGradient><linearGradient
       id="linearGradient55059">
      <stop
   style="stop-color:#f8fdfa;stop-opacity:1;"
   offset="0"
   id="stop55053" />
      <stop
   style="stop-color:#7bbe92;stop-opacity:1"
   offset=".5"
   id="stop55055" />
      <stop
   style="stop-color:#ffffff;stop-opacity:1;"
   offset="1"
   id="stop55057" />
    </linearGradient><linearGradient
       id="linearGradient48565">
      <stop
   style="stop-color:#68934a;stop-opacity:0.99215686;"
   offset="0"
   id="stop48559" />
      <stop
   style="stop-color:#9dc481;stop-opacity:0.92941177;"
   offset="0.5"
   id="stop48561" />
      <stop
   style="stop-color:#5b8936;stop-opacity:1;"
   offset="1"
   id="stop48563" />
    </linearGradient><linearGradient
       inkscape:collect="always"
       id="linearGradient41289"><stop
         style="stop-color:#ffffff;stop-opacity:1;"
         offset="0"
         id="stop41285" /><stop
         style="stop-color:#ffffff;stop-opacity:0;"
         offset="1"
         id="stop41287" /></linearGradient><linearGradient
       id="linearGradient38779">
      <stop
   style="stop-color:#1b7245;stop-opacity:1;"
   offset="0"
   id="stop38773" />
      <stop
   style="stop-color:#3dad6e;stop-opacity:1;"
   offset="0.5"
   id="stop38775" />
      <stop
   style="stop-color:#0f573f;stop-opacity:1;"
   offset="1"
   id="stop38777" />
    </linearGradient><linearGradient
       inkscape:collect="always"
       id="linearGradient32131"><stop
         style="stop-color:#6c5353;stop-opacity:1;"
         offset="0"
         id="stop32127" /><stop
         style="stop-color:#493838;stop-opacity:1;"
         offset="1"
         id="stop32129" /></linearGradient><linearGradient
       inkscape:collect="always"
       id="linearGradient31640"><stop
         style="stop-color:#916f6f;stop-opacity:1;"
         offset="0"
         id="stop31636" /><stop
         style="stop-color:#6c5353;stop-opacity:1;"
         offset="1"
         id="stop31638" /></linearGradient><linearGradient
       id="linearGradient30116">
      <stop
   style="stop-color:#1b722e;stop-opacity:1;"
   offset="0"
   id="stop30110" />
      <stop
   style="stop-color:#3dad53;stop-opacity:1;"
   offset="0.5"
   id="stop30112" />
      <stop
   style="stop-color:#0f5730;stop-opacity:1;"
   offset="1"
   id="stop30114" />
    </linearGradient><linearGradient
       id="linearGradient30108">
      <stop
   style="stop-color:#386e2a;stop-opacity:1;"
   offset="0"
   id="stop30102" />
      <stop
   style="stop-color:#69a44a;stop-opacity:1;"
   offset="0.5"
   id="stop30104" />
      <stop
   style="stop-color:#427e2d;stop-opacity:1;"
   offset="1"
   id="stop30106" />
    </linearGradient><inkscape:path-effect
       effect="bspline"
       id="path-effect24496"
       is_visible="true"
       lpeversion="1"
       weight="33.333333"
       steps="2"
       helper_size="0"
       apply_no_weight="true"
       apply_with_weight="true"
       only_selected="false" /><inkscape:path-effect
       effect="bspline"
       id="path-effect24492"
       is_visible="true"
       lpeversion="1"
       weight="33.333333"
       steps="2"
       helper_size="0"
       apply_no_weight="true"
       apply_with_weight="true"
       only_selected="false" /><inkscape:path-effect
       effect="bspline"
       id="path-effect24488"
       is_visible="true"
       lpeversion="1"
       weight="33.333333"
       steps="2"
       helper_size="0"
       apply_no_weight="true"
       apply_with_weight="true"
       only_selected="false" /><linearGradient
       xlink:href="#linearGradient58533"
       id="aQ"
       gradientUnits="userSpaceOnUse"
       x1="-123.4"
       y1="68"
       x2="-35"
       y2="55.200001" /><linearGradient
       id="b">
      <stop
   style="stop-color:#1b7263;stop-opacity:1"
   offset="0"
   id="stop23159" />
      <stop
   style="stop-color:#3dad7a;stop-opacity:1"
   offset=".5"
   id="stop23161" />
      <stop
   style="stop-color:#11615c;stop-opacity:1"
   offset="1"
   id="stop23163" />
    </linearGradient><linearGradient
       xlink:href="#c"
       id="aR"
       gradientUnits="userSpaceOnUse"
       x1="-110.8"
       y1="74.599998"
       x2="-37"
       y2="53.599998" /><linearGradient
       id="c">
      <stop
   style="stop-color:#3ba978;stop-opacity:1"
   offset="0"
   id="stop23152" />
      <stop
   style="stop-color:#7bbe92;stop-opacity:1"
   offset=".5"
   id="stop23154" />
      <stop
   style="stop-color:#37a276;stop-opacity:1"
   offset="1"
   id="stop23156" />
    </linearGradient><linearGradient
       inkscape:collect="always"
       xlink:href="#linearGradient30108"
       id="linearGradient23951"
       gradientUnits="userSpaceOnUse"
       x1="-123.4"
       y1="68"
       x2="-35"
       y2="55.200001" /><linearGradient
       inkscape:collect="always"
       xlink:href="#linearGradient58533"
       id="linearGradient23961"
       gradientUnits="userSpaceOnUse"
       x1="-123.4"
       y1="68"
       x2="-35"
       y2="55.200001" /><linearGradient
       inkscape:collect="always"
       xlink:href="#linearGradient30108"
       id="linearGradient24073"
       gradientUnits="userSpaceOnUse"
       x1="-123.4"
       y1="68"
       x2="-35"
       y2="55.200001" /><linearGradient
       inkscape:collect="always"
       xlink:href="#linearGradient58541"
       id="linearGradient24073-3"
       gradientUnits="userSpaceOnUse"
       x1="-123.4"
       y1="68"
       x2="-35"
       y2="55.200001"
       gradientTransform="matrix(-0.57854734,-0.35915592,0.31916874,-0.73743705,206.64672,17.077344)" /><linearGradient
       inkscape:collect="always"
       xlink:href="#linearGradient58549"
       id="linearGradient24073-3-7"
       gradientUnits="userSpaceOnUse"
       x1="-123.4"
       y1="68"
       x2="-35"
       y2="55.200001" /><linearGradient
       inkscape:collect="always"
       xlink:href="#linearGradient58533"
       id="linearGradient24073-3-7-7"
       gradientUnits="userSpaceOnUse"
       x1="-123.4"
       y1="68"
       x2="-35"
       y2="55.200001" /><linearGradient
       inkscape:collect="always"
       xlink:href="#linearGradient48565"
       id="linearGradient24073-3-7-7-8"
       gradientUnits="userSpaceOnUse"
       x1="-123.4"
       y1="68"
       x2="-35"
       y2="55.200001"
       gradientTransform="matrix(-0.41310553,-0.61435846,0.63048885,-0.42053646,198.32186,-28.760658)" /><linearGradient
       inkscape:collect="always"
       xlink:href="#linearGradient31640"
       id="linearGradient31642"
       x1="58.593369"
       y1="268.79114"
       x2="123.90515"
       y2="268.79114"
       gradientUnits="userSpaceOnUse" /><linearGradient
       inkscape:collect="always"
       xlink:href="#linearGradient32131"
       id="linearGradient32133"
       x1="55.153786"
       y1="238.10107"
       x2="127.34473"
       y2="238.10107"
       gradientUnits="userSpaceOnUse" /><radialGradient
       inkscape:collect="always"
       xlink:href="#linearGradient41289"
       id="radialGradient41293"
       cx="17.787954"
       cy="189.62968"
       fx="17.787954"
       fy="189.62968"
       r="8.8169031"
       gradientTransform="matrix(0.99958128,-0.02893547,0.01201171,0.41494694,50.285634,86.1128)"
       gradientUnits="userSpaceOnUse" /><radialGradient
       inkscape:collect="always"
       xlink:href="#linearGradient41289"
       id="radialGradient41293-4"
       cx="17.787954"
       cy="189.62968"
       fx="17.787954"
       fy="189.62968"
       r="8.8169031"
       gradientTransform="matrix(0.99958128,-0.02893547,0.01201171,0.41494694,-28.751745,118.72079)"
       gradientUnits="userSpaceOnUse" /><radialGradient
       inkscape:collect="always"
       xlink:href="#linearGradient41289"
       id="radialGradient41293-4-5"
       cx="17.787954"
       cy="189.62968"
       fx="17.787954"
       fy="189.62968"
       r="8.8169031"
       gradientTransform="matrix(0.99958128,-0.02893547,0.01201171,0.41494694,1.7174143,106.68017)"
       gradientUnits="userSpaceOnUse" /><radialGradient
       inkscape:collect="always"
       xlink:href="#linearGradient41289"
       id="radialGradient41293-4-5-1"
       cx="17.787954"
       cy="189.62968"
       fx="17.787954"
       fy="189.62968"
       r="8.8169031"
       gradientTransform="matrix(0.99958128,-0.02893547,0.01201171,0.41494694,-59.374903,129.30955)"
       gradientUnits="userSpaceOnUse" /><radialGradient
       inkscape:collect="always"
       xlink:href="#linearGradient41289"
       id="radialGradient41293-4-5-2"
       cx="17.787954"
       cy="189.62968"
       fx="17.787954"
       fy="189.62968"
       r="8.8169031"
       gradientTransform="matrix(0.99958128,-0.02893547,0.01201171,0.41494694,61.481946,54.993325)"
       gradientUnits="userSpaceOnUse" /><radialGradient
       inkscape:collect="always"
       xlink:href="#linearGradient41289"
       id="radialGradient41293-4-5-5"
       cx="17.787954"
       cy="189.62968"
       fx="17.787954"
       fy="189.62968"
       r="8.8169031"
       gradientTransform="matrix(0.99958128,-0.02893547,0.01201171,0.41494694,95.558933,48.597367)"
       gradientUnits="userSpaceOnUse" /><radialGradient
       inkscape:collect="always"
       xlink:href="#linearGradient41289"
       id="radialGradient41293-4-5-6"
       cx="17.787954"
       cy="189.62968"
       fx="17.787954"
       fy="189.62968"
       r="8.8169031"
       gradientTransform="matrix(0.99958128,-0.02893547,0.01201171,0.41494694,112.48003,52.808992)"
       gradientUnits="userSpaceOnUse" /><radialGradient
       inkscape:collect="always"
       xlink:href="#linearGradient41289"
       id="radialGradient41293-4-5-3"
       cx="17.787954"
       cy="189.62968"
       fx="17.787954"
       fy="189.62968"
       r="8.8169031"
       gradientTransform="matrix(0.99958128,-0.02893547,0.01201171,0.41494694,142.41954,66.644928)"
       gradientUnits="userSpaceOnUse" /><radialGradient
       inkscape:collect="always"
       xlink:href="#linearGradient41289"
       id="radialGradient41293-4-5-25"
       cx="17.787954"
       cy="189.62968"
       fx="17.787954"
       fy="189.62968"
       r="8.8169031"
       gradientTransform="matrix(0.99958128,-0.02893547,0.01201171,0.41494694,198.93068,12.800764)"
       gradientUnits="userSpaceOnUse" /><radialGradient
       inkscape:collect="always"
       xlink:href="#linearGradient41289"
       id="radialGradient41293-4-5-4"
       cx="17.787954"
       cy="189.62968"
       fx="17.787954"
       fy="189.62968"
       r="8.8169031"
       gradientTransform="matrix(0.99958128,-0.02893547,0.01201171,0.41494694,222.34233,-25.840252)"
       gradientUnits="userSpaceOnUse" /><mask
       maskUnits="userSpaceOnUse"
       id="mask40621"><rect
         style="opacity:1;fill:url(#linearGradient40625);fill-opacity:1;stroke:none;stroke-width:0.15;stroke-linecap:round;stroke-dasharray:none;stroke-opacity:0.7;paint-order:fill markers stroke"
         id="rect40623"
         width="31.75"
         height="33.226566"
         x="37.041664"
         y="53.574165"
         rx="1.1545725"
         ry="1.1545725" /></mask><linearGradient
       inkscape:collect="always"
       xlink:href="#linearGradient39839"
       id="linearGradient40625"
       gradientUnits="userSpaceOnUse"
       x1="54.970371"
       y1="77.745987"
       x2="54.970371"
       y2="70.177307" /><linearGradient
       inkscape:collect="always"
       id="linearGradient39839"><stop
         style="stop-color:#ffffff;stop-opacity:0;"
         offset="0"
         id="stop39835" /><stop
         style="stop-color:#ffffff;stop-opacity:1;"
         offset="1"
         id="stop39837" /></linearGradient></defs><g
     inkscape:label="Layer 1"
     inkscape:groupmode="layer"
     id="layer1"
     transform="translate(19.631418,-54.634834)"><path
       style="opacity:1;fill:none;stroke:#644407;stroke-width:2;stroke-linecap:round;stroke-dasharray:none;stroke-opacity:1"
       d="m 44.402726,160.39705 c 4.932711,-3.50309 9.86537,-7.00614 15.528846,-4.76335 5.663476,2.24279 12.057332,10.23077 16.992272,17.12188 4.934941,6.8911 8.41075,12.68491 10.93547,23.78257 2.52472,11.09767 4.098383,27.49847 5.672049,43.8993"
       id="path24490"
       inkscape:path-effect="#path-effect24492"
       inkscape:original-d="m 44.402726,160.39705 c 4.932924,-3.50279 9.865585,-7.00584 14.797979,-10.50916 6.394376,7.98857 12.78823,15.97656 19.181948,23.96444 3.47621,5.7943 6.952016,11.58811 10.427628,17.38176 1.57399,16.40171 3.147652,32.80251 4.721082,49.20336" /><path
       style="opacity:1;fill:none;stroke:#644407;stroke-width:2;stroke-dasharray:none;stroke-opacity:1"
       d="m 114.05392,117.80865 c 0,0 -14.990589,6.87285 -18.885815,13.5764 -9.802751,16.87018 -6.149281,58.21046 -6.149281,58.21046"
       id="path33923"
       sodipodi:nodetypes="cac" /><path
       id="path31634"
       style="opacity:1;fill:#483737;fill-opacity:1;stroke-width:0.264583;stroke-linecap:round"
       d="m 56.517543,241.898 -1.363759,-10.88633 c 17.267618,-4.44877 54.509066,-3.2791 72.190946,0 l -1.99637,12.2483 C 100.79991,238.63863 80.127819,237.57623 56.517543,241.898 Z"
       sodipodi:nodetypes="ccccc" /><path
       style="opacity:1;fill:none;stroke:#644407;stroke-width:2;stroke-dasharray:none;stroke-opacity:1"
       d="m 148.07206,145.99724 c -7.03062,-1.93212 -14.06155,-3.86433 -22.17217,0.43402 -8.11062,4.29835 -17.30024,14.82691 -23.33557,27.32738 -6.035337,12.50047 -8.916074,26.97188 -9.895781,38.41376 -0.979707,11.44189 -0.05843,19.85353 0.862824,28.26505"
       id="path24486"
       inkscape:path-effect="#path-effect24488"
       inkscape:original-d="m 148.07206,145.99724 c -7.03067,-1.93194 -14.0616,-3.86415 -21.0928,-5.79662 -9.18971,10.52924 -18.37933,21.05779 -27.569384,31.58629 -2.880588,14.47226 -5.761326,28.94367 -8.642384,43.41511 0.921572,8.41224 1.842844,16.82388 2.763871,25.23543" /><path
       style="opacity:1;fill:none;stroke:#644407;stroke-width:2;stroke-dasharray:none;stroke-opacity:1"
       d="m 90.20458,122.72681 c -2.963903,-2.16154 -5.928107,-4.32329 -6.271768,5.17762 -0.343661,9.50092 1.933391,30.66358 4.210457,51.82636"
       id="path24494"
       inkscape:path-effect="#path-effect24496"
       inkscape:original-d="m 90.20458,122.72681 c -2.963937,-2.16149 -5.928138,-4.32325 -8.892603,-6.48526 2.277408,21.16377 4.55446,42.32643 6.831292,63.48924" /><path
       style="opacity:1;fill:#26653a;stroke:#644407;stroke-width:2;stroke-linecap:round;stroke-dasharray:none;stroke-opacity:1"
       d="M 81.443752,104.24857 94.842787,255.21302"
       id="path24476" /><path
       id="rect30174"
       style="opacity:1;fill:url(#linearGradient31642);fill-opacity:1;stroke-width:0.264583;stroke-linecap:round"
       d="m 58.593367,231.56776 8.995833,71.81009 c 12.854552,3.32335 35.43739,3.18397 47.32012,0 l 8.99583,-71.81009 c -22.2092,4.18097 -43.95136,3.90995 -65.311783,0 z"
       sodipodi:nodetypes="ccccc" /><path
       style="opacity:1;fill:none;stroke:#644407;stroke-width:2;stroke-dasharray:none;stroke-opacity:1"
       d="m 64.709619,121.07778 c 0,0 9.278436,7.36713 11.998708,12.44779 9.032138,16.86934 12.310497,56.06994 12.310497,56.06994"
       id="path24478"
       sodipodi:nodetypes="cac" /><g
       id="g23784"
       transform="matrix(0.46772902,0.49150195,-0.85471722,0.52383219,13.454451,-26.098214)"
       style="opacity:0.8">
    <path
   style="fill:url(#aQ);fill-opacity:1;stroke:none;stroke-width:0.264583px;stroke-linecap:butt;stroke-linejoin:miter;stroke-opacity:1"
   d="m -60.1,114.7 c 2.6,-4.7 8.3,-11.2 13.5,-17.4 a 4,4 0 0 0 0.8,-3.2 c -1.9,-6.7 -7.8,-13 -18.6,-18.8 a 4.6,4.6 0 0 1 -2,-2.7 l -0.1,-0.3 c -0.3,-1 0.4,-1.8 1.4,-1.7 11.7,0.6 18.9,7 23.6,17.1 0.5,1 1.3,1 1.9,0.2 a 21,21 0 0 0 4,-11.4 9.6,9.6 0 0 0 -2.1,-6 61,61 0 0 0 -27.5,-15 3.2,3.2 0 0 1 -2,-2.3 l -0.4,-1.9 c -0.2,-1 0.5,-1.6 1.5,-1.5 14.9,2.8 21.3,5.1 28.3,17.5 0.5,1 1.4,1 2,0.1 2.7,-4.7 2.4,-9.6 1.7,-14.7 a 7.9,7.9 0 0 0 -4,-5.4 74.7,74.7 0 0 0 -25.4,-6.3 2.4,2.4 0 0 1 -2.2,-1.9 c 0,-0.6 0.7,-1.2 1.7,-1.3 9.2,-1.1 14.8,2 22,6.5 2,1.3 3.9,0.3 3.6,-2 -2.4,-22 -30.7,-28.6 -41,-16 -0.6,0.8 -1.6,1 -2.4,0.2 -16.6,-14.8 -33.8,1.1 -39.3,18.7 -0.8,2.3 0.5,3.1 2.5,1.8 6.7,-4.5 12.5,-8.6 20,-10.9 a 2,2 0 0 1 2.4,1.3 c 0.2,0.3 -0.5,0.9 -1.5,1.2 -9,3 -16,7 -22.1,13.5 -2,2 -3.4,6.2 -3.4,9 v 4.6 c 0,2.9 1.3,3.3 3.2,1.1 a 84,84 0 0 1 28.1,-20 c 1,-0.4 2,0 2.2,1 0.1,0.6 -0.4,1.5 -1.2,2 -11,7.7 -22.2,15.3 -28,25.7 -0.5,1 -0.6,2.5 -0.2,3.4 l 4.4,11 c 0.4,1 1,1 1.4,0 a 45.4,45.4 0 0 1 27.3,-29.3 2.5,2.5 0 0 1 2.9,0.7 c 0.3,0.4 0,1.2 -0.8,1.9 a 76.7,76.7 0 0 0 -22.3,30.2 6.8,6.8 0 0 0 0.7,5.9 l 6.3,8.8 c 0.6,0.8 1.3,0.7 1.6,-0.3 A 71,71 0 0 1 -79,76.2 c 0.8,-0.7 1.6,-0.4 1.7,0.6 l 0.2,0.7 c 0.1,1 0,2.6 -0.3,3.6 -3.5,8.7 -13,15.9 -8.8,28 0.3,0.9 1.5,1.7 2.5,1.9 5.9,0.8 13.5,2.9 21,4.9 1,0.2 2,-0.3 2.6,-1.2 z"
   transform="matrix(-0.65331,-0.35276,0.36024,-0.6643,202.2,16.9)"
   id="path23780" />
    <path
   style="opacity:0.3;fill:#ffffff;fill-opacity:1;fill-rule:nonzero;stroke:none;stroke-width:0.361156;stroke-linecap:round;stroke-linejoin:round;stroke-dasharray:none;stroke-opacity:1"
   d="m -61.7,26.4 a 20,20 0 0 0 -4.2,0.4 20.4,20.4 0 0 0 -9.6,4.6 11,11 0 0 0 -2.4,2.8 c -0.8,1.4 -0.4,2.1 -0.4,2.1 0,0 -0.2,-0.7 0.7,-2 0.6,-0.7 1.3,-1.5 2.5,-2.3 a 23.6,23.6 0 0 1 9.4,-4 22.2,22.2 0 0 1 22.7,9 10.8,10.8 0 0 1 0.8,1.4 10.4,10.4 0 0 0 -0.7,-1.5 21.8,21.8 0 0 0 -18.8,-10.5 z m 19.5,12 z m -49,-10.8 a 18.5,18.5 0 0 0 -4.2,0.5 32.3,32.3 0 0 0 -8.5,3.2 42.4,42.4 0 0 0 -12.1,8.4 5.5,5.5 0 0 0 -1.3,1.9 0.9,0.9 0 0 0 -0.1,0.4 l 0.1,-0.4 c 0.2,-0.6 0.6,-1 1.4,-1.8 3,-2.8 6,-4.4 12.5,-7.6 a 35.5,35.5 0 0 1 8.3,-3 c 3.7,-0.7 7,-0.7 9.7,0.4 a 7.5,7.5 0 0 1 2.5,1.6 c 1,1 1,1.7 1,1.7 0,0 0.1,-0.8 -0.8,-2 a 7.5,7.5 0 0 0 -2.5,-2 13.2,13.2 0 0 0 -6,-1.3 z m 10.4,0.9 c 0,0 0.5,9.9 2.1,19.6 a 563.4,563.4 0 0 0 15.3,64.2 c 0,0 -1.2,-7.7 -3.2,-15.4 l -1,-4.3 1,-0.2 a 7.4,7.4 0 0 1 4.3,1.1 l 1,0.8 a 10.7,10.7 0 0 1 2.9,3.2 12.6,12.6 0 0 1 1.3,4.2 c 0,0 0,-2 -1,-4.3 A 10.2,10.2 0 0 0 -61,94 a 7.8,7.8 0 0 0 -2.7,-1.6 5.2,5.2 0 0 0 -3,-0.2 l -1,0.4 a 536,536 0 0 1 -9.7,-44.7 z m -7,10.7 c -2.3,0 -4.7,0.7 -7.2,1.7 a 75,75 0 0 0 -8,3.7 36.7,36.7 0 0 0 -13.4,11 17.3,17.3 0 0 0 -2,3.8 7,7 0 0 0 -0.4,1.3 v -0.3 l 0.5,-1 c 0.4,-0.9 1,-2 2.2,-3.5 3,-3.7 7.1,-7 13.6,-10.3 a 93,93 0 0 1 8,-3.6 21,21 0 0 1 8.3,-2 9,9 0 0 1 5,1.7 c 0,0 -1.6,-2 -5,-2.4 l -1.5,-0.1 z m 23.8,4.3 a 12.3,12.3 0 0 0 -5,0.8 c -3.2,1.4 -4,3.8 -4,3.8 0,0 1.3,-2.2 4.3,-3 a 16,16 0 0 1 7.9,-0.1 c 2.4,0.4 4.8,1 7.2,1.7 a 27.7,27.7 0 0 1 16.4,13 13.2,13.2 0 0 1 0.8,1.7 L -36.5,61 a 12.7,12.7 0 0 0 -0.6,-1.4 27,27 0 0 0 -16.2,-14 53,53 0 0 0 -7.3,-1.8 z m 27.6,18 z M -83.9,53 a 20,20 0 0 0 -10.1,3 49.3,49.3 0 0 0 -7.6,5.6 29.9,29.9 0 0 0 -10.1,13.2 10.6,10.6 0 0 0 -0.7,3.5 3.9,3.9 0 0 0 0.2,1.1 3.9,3.9 0 0 1 -0.1,-1 c 0,-1 0.3,-2 1,-3.5 a 32,32 0 0 1 10.5,-12.3 57.7,57.7 0 0 1 7.5,-5.2 c 3.5,-2 6.3,-3.3 9.4,-3.6 3.2,-0.3 5,0.9 5,0.9 0,0 -1.5,-1.7 -5,-1.7 z m 17.1,7 c -0.7,0 -1.4,0.2 -2,0.3 -2.8,0.6 -3.2,2.4 -3.2,2.4 0,0 0.9,-1.6 3.3,-1.7 2.6,-0.1 4.9,0.8 8.2,1.9 3,1 5.7,2.2 8.4,3.4 6.3,2.9 10,6 11.5,10.2 a 9,9 0 0 1 0.6,3.7 4.5,4.5 0 0 1 -0.2,1.3 h -0.1 a 1,1 0 0 0 0.2,-0.2 l 0.3,-1 a 8.9,8.9 0 0 0 -0.3,-4 c -1.3,-4.2 -5,-8.1 -11.5,-11.2 A 76.4,76.4 0 0 0 -60,61.5 c -2.4,-0.9 -4.7,-1.4 -6.8,-1.4 z m -52,0.7 z m 0,0 z m 82.4,0.8 z m -43.7,6.7 c -1.9,0 -4,0.6 -6,1.9 l -1.6,1.2 a 24.1,24.1 0 0 0 -5,6.1 39.8,39.8 0 0 0 -5.3,13.1 c -0.2,1.5 -0.2,2.5 -0.2,3.3 a 4.5,4.5 0 0 0 0.2,1 4.5,4.5 0 0 1 -0.1,-1 c 0,-0.8 0.1,-1.8 0.5,-3.2 0.9,-3.7 2.6,-7.6 5.8,-12.6 a 25.3,25.3 0 0 1 4.8,-5.8 l 1.6,-1.1 a 12.8,12.8 0 0 1 5.7,-2.2 c 2,-0.2 3.3,0.4 3.3,0.4 0,0 -1,-1 -3.3,-1 h -0.4 z m 12.9,12 h -1.3 c -0.7,0.3 -1,0.7 -1,0.7 0,0 0.3,-0.3 1,-0.4 0.6,0 1,0 1.7,0.2 a 21.3,21.3 0 0 1 5.4,2 13.6,13.6 0 0 1 2.8,1.9 c 2.3,2 4,4.9 5.2,6.8 a 67.3,67.3 0 0 1 2.4,4 2.3,2.3 0 0 1 0.1,0.4 v -0.1 a 16.6,16.6 0 0 0 -0.5,-1.2 49.6,49.6 0 0 0 -1.6,-3.3 c -1,-2 -2.6,-5 -5,-7.3 a 13,13 0 0 0 -4,-2.6 13,13 0 0 0 -5.2,-1.2 z m -3.3,9 c 0,0 -1.2,0 -2.4,0.6 a 13.2,13.2 0 0 0 -3.4,2.3 15.2,15.2 0 0 0 -1.6,1.9 l -0.8,1.3 a 14.3,14.3 0 0 0 -1.3,6 17.3,17.3 0 0 0 0.1,3 0.4,0.4 0 0 0 0,0.1 h 0.1 a 5.6,5.6 0 0 1 0,-0.7 24.5,24.5 0 0 1 1.9,-8 10.8,10.8 0 0 1 2.3,-3 29.2,29.2 0 0 1 3,-2.5 c 1.2,-0.8 2,-1 2,-1 z m 19.6,6.6 z"
   transform="matrix(-0.65331,-0.35276,0.36024,-0.6643,202.2,16.9)"
   id="path23782" />
  </g><g
       id="g24081-9-6-9-3"
       transform="matrix(-0.83608626,0.09760749,-0.09697332,-0.84155397,254.01065,143.51238)"
       inkscape:transform-center-x="6.6977571"
       inkscape:transform-center-y="24.148341"
       style="opacity:0.8">
    <path
   style="fill:url(#linearGradient24073-3-7-7-8);fill-opacity:1;stroke:none;stroke-width:0.198185px;stroke-linecap:butt;stroke-linejoin:miter;stroke-opacity:1"
   d="m 295.46658,-40.073246 c -4.03737,0.379189 -10.49025,-0.389167 -16.54743,-0.976505 a 2.9608809,3.0319198 60.728145 0 0 -2.34805,0.85423 c -3.43938,3.984875 -4.97413,10.25897 -4.16943,19.333153 a 3.405013,3.4867078 60.728145 0 1 -0.87611,2.364164 l -0.14783,0.187597 c -0.50656,0.604844 -1.30013,0.511223 -1.65018,-0.14519 -4.45504,-7.440315 -3.39428,-14.555129 1.03207,-21.690032 0.42393,-0.727716 0.0935,-1.219203 -0.65881,-1.251389 a 15.544625,15.917579 60.728145 0 0 -8.83999,2.336682 7.1061142,7.2766076 60.728145 0 0 -2.91541,3.813372 45.153434,46.236777 60.728145 0 0 1.90307,23.202904 2.3687047,2.4255359 60.728145 0 1 -0.62392,2.1959505 l -1.03268,1.0447627 c -0.54787,0.5434081 -1.21534,0.3656791 -1.5654,-0.290733 -4.3899,-10.3314432 -5.58365,-15.2305712 -0.65733,-24.7457322 0.42394,-0.727716 0.0521,-1.280638 -0.76316,-1.27077 -4.07868,0.317753 -7.04415,2.562689 -9.97046,5.137476 a 5.8477398,5.9880416 60.728145 0 0 -1.75222,4.728331 55.294451,56.621103 60.728145 0 0 6.5208,18.254084 1.7765285,1.8191519 60.728145 0 1 -0.2891,2.1506079 c -0.37829,0.2523218 -1.04576,0.074593 -1.52191,-0.497712 -4.49411,-5.1895079 -4.85299,-9.9335779 -4.99015,-16.2493729 -0.007,-1.775414 -1.42196,-2.522159 -2.74815,-1.370617 -12.87931,10.726262 -5.34965,30.8881465 6.8495,31.9172795 0.75226,0.03219 1.29146,0.562437 1.11755,1.3903535 -2.47368,16.42229 14.65651,20.302726 28.02519,16.280256 1.78061,-0.475747 1.74796,-1.610843 0.10212,-2.292862 -5.60501,-2.223788 -10.58603,-4.062867 -15.13444,-7.703322 a 1.4804405,1.5159599 60.728145 0 1 -0.17182,-2.021158 c 0.10653,-0.249032 0.77399,-0.0713 1.37624,0.416894 5.60942,4.267617 11.02312,6.885981 17.64124,7.90008 2.08719,0.387644 5.31359,-0.518507 7.07895,-1.696009 l 2.90025,-1.934468 c 1.82842,-1.219556 1.54358,-2.186436 -0.6284,-2.428537 A 62.178499,63.670316 60.728145 0 1 265.79314,8.0177775 c -0.6653,-0.446144 -0.82621,-1.228717 -0.27834,-1.772125 0.33698,-0.313757 1.11097,-0.385061 1.7567,-0.103843 9.39893,3.519813 18.81742,7.2045515 27.77052,6.3942505 0.83704,-0.113357 1.82409,-0.682726 2.22628,-1.306952 l 5.11772,-7.3290785 c 0.46524,-0.66628 0.21738,-1.034895 -0.57835,-0.860102 a 33.605998,34.41229 60.728145 0 1 -29.75111,-4.4502677 1.8505506,1.8949499 60.728145 0 1 -0.75666,-2.0760151 c 0.12826,-0.3525221 0.75659,-0.5046437 1.52841,-0.3075325 a 56.774891,58.137063 60.728145 0 0 28.25302,0.9999927 5.0334975,5.1542637 60.728145 0 0 3.43071,-2.911216 l 2.94574,-7.5711789 c 0.25653,-0.705044 -0.0957,-1.093042 -0.85012,-0.856813 a 52.555636,53.816577 60.728145 0 1 -27.60721,1.861885 c -0.77182,-0.197111 -0.91316,-0.814759 -0.32398,-1.296731 l 0.35872,-0.417248 c 0.58918,-0.481972 1.63927,-1.093394 2.39369,-1.329623 6.93112,-1.508413 15.39514,1.30013 21.28901,-6.368666 0.44351,-0.562791 0.45218,-1.63645 0.16517,-2.334916 -1.93293,-3.961144 -3.74851,-9.513395 -5.58582,-14.962156 -0.28701,-0.698466 -1.01536,-1.102556 -1.83066,-1.092688 z"
   id="path24077-1-1-2-1" />
    <path
   style="opacity:0.2;fill:#ffffff;fill-opacity:1;fill-rule:nonzero;stroke:none;stroke-width:0.270523;stroke-linecap:round;stroke-linejoin:round;stroke-dasharray:none;stroke-opacity:1"
   d="m 240.45538,-1.956904 a 14.804405,15.159599 60.728145 0 0 1.98724,2.41209051 15.100493,15.462791 60.728145 0 0 6.86606,3.96337399 8.1424225,8.3377795 60.728145 0 0 2.75682,0.296958 c 1.21317,-0.09726 1.48927,-0.637383 1.48927,-0.637383 0,0 -0.35872,0.417247 -1.55015,0.411022 -0.6892,-0.07424 -1.48277,-0.167861 -2.48289,-0.568662 a 17.469197,17.888327 60.728145 0 1 -6.40514,-4.09282399 16.432889,16.827155 60.728145 0 1 -3.7031,-17.73076551 7.9943785,8.1861835 60.728145 0 1 0.5522,-1.080237 7.6982904,7.8829915 60.728145 0 0 -0.65656,1.060855 16.136801,16.523963 60.728145 0 0 1.14625,15.965572 z m -0.48969,-17.026427 z m 13.43289,34.645358 a 13.694074,14.022629 60.728145 0 0 2.05029,2.370038 23.909113,24.482753 60.728145 0 0 5.52896,3.87633 31.385338,32.13835 60.728145 0 0 10.29468,3.901231 4.0712113,4.1688898 60.728145 0 0 1.73497,-3.53e-4 0.66619821,0.68218196 60.728145 0 0 0.29351,-0.106779 l -0.29351,0.106779 c -0.46091,0.12945 -0.87835,0.05192 -1.71323,-0.103136 -3.00468,-0.665574 -5.25278,-1.835791 -9.95553,-4.483404 a 26.277818,26.908288 60.728145 0 1 -5.32024,-3.837566 c -1.96984,-1.978751 -3.33309,-4.006134 -3.75493,-6.127492 a 5.5516517,5.6848497 60.728145 0 1 -0.024,-2.2087545 c 0.21738,-1.034895 0.65872,-1.329271 0.65872,-1.329271 0,0 -0.5457,0.274994 -0.93049,1.33256 a 5.5516517,5.6848497 60.728145 0 0 -0.22822,2.3769695 9.770907,10.005335 60.728145 0 0 1.659,4.232848 z m -3.72886,-6.7678105 c 0,0 6.03529,-4.470491 11.49006,-9.53266779 A 417.04008,427.04591 60.728145 0 0 295.31665,-37.036576 c 0,0 -4.35903,3.975361 -8.38759,8.442209 l -2.29799,2.422665 -0.53921,-0.530251 a 5.4776297,5.6090517 60.728145 0 1 -1.08281,-3.104332 l 0.0913,-0.950787 a 7.9203564,8.1103855 60.728145 0 1 0.81956,-3.127357 9.3267749,9.5505474 60.728145 0 1 2.11102,-2.564919 c 0,0 -1.26098,0.841073 -2.298,2.422666 a 7.5502463,7.7313955 60.728145 0 0 -0.94566,3.211463 5.7737178,5.9122437 60.728145 0 0 0.10661,2.331626 3.8491452,3.9414958 60.728145 0 0 1.11322,1.927183 l 0.6653,0.446144 A 396.75804,406.27726 60.728145 0 1 260.49665,-1.35301 Z m 9.63797,-0.199231 c 0.95015,1.4130245 2.38294,2.5931095 4.04619,3.7084695 a 55.516517,56.848497 60.728145 0 0 5.63766,3.358882 27.166082,27.817864 60.728145 0 0 12.47099,3.606503 12.80581,13.113053 60.728145 0 0 3.22207,-0.369322 5.1815416,5.3058597 60.728145 0 0 0.98488,-0.300954 l -0.18915,0.126161 -0.83704,0.113357 c -0.73269,0.13274 -1.67409,0.226715 -3.11555,0.120289 -3.57212,-0.28709 -7.34647,-1.41819 -12.11227,-4.023749 a 68.840481,70.492136 60.728145 0 1 -5.5746,-3.400937 15.544625,15.917579 60.728145 0 1 -4.68975,-4.2581025 6.6619821,6.8218196 60.728145 0 1 -0.9937,-3.786704 c 0,0 -0.60001,1.824046 0.55235,4.08108 l 0.55661,0.963591 z m -7.12081,-16.4300384 a 9.1047088,9.3231535 60.728145 0 0 2.56992,2.7353631 c 2.20462,1.377196 4.04828,0.8593953 4.04828,0.8593953 0,0 -1.92411,0.1265142 -3.66782,-1.380132 a 11.843524,12.127679 60.728145 0 1 -3.32658,-4.8113785 c -0.73926,-1.642675 -1.35242,-3.369457 -1.90253,-5.138293 a 20.5041,20.996045 60.728145 0 1 1.42142,-15.542452 9.770907,10.005335 60.728145 0 1 0.74135,-1.206399 l -0.21088,0.229651 a 9.4007969,9.6263454 60.728145 0 0 -0.63482,0.957366 19.985946,20.465459 60.728145 0 0 -2.13454,15.840117 39.231672,40.172938 60.728145 0 0 1.88079,5.2417824 z m -0.0529,-24.5259491 z m 14.26336,32.75658651 a 14.804405,15.159599 60.728145 0 0 6.06383,4.94341099 36.492857,37.368412 60.728145 0 0 6.67034,2.31412 22.132585,22.663601 60.728145 0 0 12.49482,0.653939 7.8463344,8.0345875 60.728145 0 0 2.49588,-1.041827 2.8868589,2.9561218 60.728145 0 0 0.61092,-0.585461 2.8868589,2.9561218 60.728145 0 1 -0.58918,0.481972 c -0.63049,0.420536 -1.38491,0.656765 -2.61981,0.857519 a 23.687047,24.255359 60.728145 0 1 -12.09263,-1.278165 42.710707,43.735443 60.728145 0 1 -6.37683,-2.420899 c -2.70685,-1.309182 -4.68318,-2.482688 -6.15295,-4.26103859 -1.51109,-1.83978611 -1.49809,-3.45027511 -1.49809,-3.45027511 0,0 -0.45217,1.6364497 0.9937,3.78670471 z M 263.74666,-12.953701 c 0.28917,0.430051 0.70444,0.775995 1.01535,1.102556 1.53499,1.467882 2.83511,0.95666 2.83511,0.95666 0,0 -1.38057,0.119936 -2.43508,-1.312471 -1.13712,-1.555278 -1.51982,-3.346786 -2.18953,-5.836759 -0.60883,-2.263611 -0.96763,-4.427023 -1.32643,-6.590434 -0.77414,-5.090014 -0.34812,-8.666804 1.68028,-11.354595 a 6.6619821,6.8218196 60.728145 0 1 2.08494,-1.9246 3.330991,3.4109098 60.728145 0 1 0.90226,-0.423825 l 0.0413,0.06144 a 0.74022023,0.75797996 60.728145 0 0 -0.20872,-0.03877 l -0.75442,0.236229 a 6.58796,6.7460216 60.728145 0 0 -2.39802,1.866454 c -2.11102,2.564919 -3.04144,6.478137 -2.31077,11.77513 a 56.552825,57.909669 60.728145 0 0 1.20033,6.674542 c 0.42401,1.852943 1.05891,3.476236 1.92643,4.766389 z m 21.92283,31.652265 z m 0,0 z m -33.53551,-50.959566 z m 22.27699,24.0298698 c 0.7849,1.1672811 2.03071,2.205112 3.67656,2.8871315 l 1.41755,0.4783298 a 17.839307,18.267317 60.728145 0 0 5.91151,0.5065199 29.460765,30.167602 60.728145 0 0 10.44887,-2.2529278 c 1.02835,-0.507933 1.65884,-0.9284694 2.16323,-1.2648986 a 3.330991,3.4109098 60.728145 0 0 0.54787,-0.5434081 3.330991,3.4109098 60.728145 0 1 -0.58918,0.4819723 c -0.50439,0.3364291 -1.17619,0.6955297 -2.22412,1.0385374 -2.7046,1.0030623 -5.86579,1.5987451 -10.34017,1.7354803 a 18.727572,19.176893 60.728145 0 1 -5.63974,-0.5098092 l -1.35451,-0.5203834 a 9.4748189,9.7021434 60.728145 0 1 -3.74177,-2.576663 c -0.95231,-1.1446097 -1.11106,-2.1955979 -1.11106,-2.1955979 0,0 -0.21738,1.0348953 0.73276,2.4479198 l 0.16525,0.2457433 z m 2.2368,-12.9716608 0.53704,0.798666 c 0.47832,0.30389 0.85445,0.319983 0.85445,0.319983 0,0 -0.31308,-0.05815 -0.6653,-0.446144 -0.24787,-0.368615 -0.41311,-0.614359 -0.57619,-1.128517 a 15.766691,16.144973 60.728145 0 1 -0.96979,-4.158609 10.066995,10.308527 60.728145 0 1 0.0412,-2.519223 c 0.31083,-2.254097 1.43697,-4.518062 2.13917,-6.054311 a 49.816821,51.012051 60.728145 0 1 1.5305,-3.156607 1.7025065,1.7433539 60.728145 0 1 0.21089,-0.22965 l -0.063,0.04205 a 12.287656,12.582467 60.728145 0 0 -0.55003,0.811823 36.714923,37.595806 60.728145 0 0 -1.41965,2.370743 c -0.84787,1.455432 -2.07837,3.700015 -2.53704,6.141709 a 9.622863,9.8537394 60.728145 0 0 0.0131,3.550829 9.622863,9.8537394 60.728145 0 0 1.39156,3.699307 z m 7.03765,-1.757446 c 0,0 0.49573,0.737231 1.36975,1.222139 a 9.770907,10.005335 60.728145 0 0 2.85468,1.121585 11.251347,11.521295 60.728145 0 0 1.8589,0.183954 l 1.15012,-0.05521 a 10.585149,10.839113 60.728145 0 0 4.31997,-1.724552 12.80581,13.113053 60.728145 0 0 1.85015,-1.323046 0.29608809,0.30319198 60.728145 0 0 0.063,-0.04205 l -0.0413,-0.06144 a 4.1452333,4.2446878 60.728145 0 1 -0.44134,0.294375 18.135396,18.570509 60.728145 0 1 -5.82881,2.197011 7.9943785,8.1861835 60.728145 0 1 -2.84161,-0.151415 21.614431,22.133015 60.728145 0 1 -2.81554,-0.791734 c -1.00012,-0.400801 -1.4567,-0.808181 -1.4567,-0.808181 z m -3.93564,-14.816966 z"
   id="path24079-2-8-2-9" />
  </g><path
       id="path31632"
       style="opacity:1;fill:url(#linearGradient32133);fill-opacity:1;stroke-width:0.264583;stroke-linecap:round"
       d="m 55.153784,231.01167 1.363759,10.88633 c 17.267618,4.44877 51.148937,4.64107 68.830817,1.36197 l 1.99637,-12.2483 c -24.54845,4.62134 -48.58067,4.32177 -72.190946,0 z"
       sodipodi:nodetypes="ccccc" /><g
       id="g24081-9-6"
       transform="rotate(144.23292,154.11766,90.304705)"
       inkscape:transform-center-x="-4.5283769"
       inkscape:transform-center-y="28.556921">
    <path
   style="fill:url(#linearGradient24073-3-7);fill-opacity:1;stroke:none;stroke-width:0.264583px;stroke-linecap:butt;stroke-linejoin:miter;stroke-opacity:1"
   d="m -60.1,114.7 c 2.6,-4.7 8.3,-11.2 13.5,-17.4 0.714524,-0.901947 1.006016,-2.067918 0.8,-3.2 -1.9,-6.7 -7.8,-13 -18.6,-18.8 -0.983277,-0.615608 -1.697645,-1.580005 -2,-2.7 l -0.1,-0.3 c -0.3,-1 0.4,-1.8 1.4,-1.7 11.7,0.6 18.9,7 23.6,17.1 0.5,1 1.3,1 1.9,0.2 2.421225,-3.326146 3.812128,-7.290221 4,-11.4 0.0017,-2.18045 -0.738922,-4.296523 -2.1,-6 -7.704695,-7.308532 -17.183916,-12.479015 -27.5,-15 -1.012421,-0.379549 -1.764712,-1.244683 -2,-2.3 l -0.4,-1.9 c -0.2,-1 0.5,-1.6 1.5,-1.5 14.9,2.8 21.3,5.1 28.3,17.5 0.5,1 1.4,1 2,0.1 2.7,-4.7 2.4,-9.6 1.7,-14.7 -0.463127,-2.305643 -1.929384,-4.285089 -4,-5.4 -8.029994,-3.578257 -16.628582,-5.710977 -25.4,-6.3 -1.0771,-0.06669 -1.977237,-0.844079 -2.2,-1.9 0,-0.6 0.7,-1.2 1.7,-1.3 9.2,-1.1 14.8,2 22,6.5 2,1.3 3.9,0.3 3.6,-2 -2.4,-22 -30.7,-28.6 -41,-16 -0.6,0.8 -1.6,1 -2.4,0.2 -16.6,-14.8 -33.8,1.1 -39.3,18.7 -0.8,2.3 0.5,3.1 2.5,1.8 6.7,-4.5 12.5,-8.6 20,-10.9 1.017326,-0.264728 2.065958,0.303282 2.4,1.3 0.2,0.3 -0.5,0.9 -1.5,1.2 -9,3 -16,7 -22.1,13.5 -2,2 -3.4,6.2 -3.4,9 v 4.6 c 0,2.9 1.3,3.3 3.2,1.1 7.88242,-8.538594 17.45075,-15.348798 28.1,-20 1,-0.4 2,0 2.2,1 0.1,0.6 -0.4,1.5 -1.2,2 -11,7.7 -22.2,15.3 -28,25.7 -0.5,1 -0.6,2.5 -0.2,3.4 l 4.4,11 c 0.4,1 1,1 1.4,0 4.06804,-13.469381 14.151348,-24.291391 27.3,-29.3 1.015221,-0.4322 2.193728,-0.147733 2.9,0.7 0.3,0.4 0,1.2 -0.8,1.9 -9.820187,8.064032 -17.48304,18.441531 -22.3,30.2 -0.68362,1.969969 -0.42561,4.144685 0.7,5.9 l 6.3,8.8 c 0.6,0.8 1.3,0.7 1.6,-0.3 3.326181,-11.980235 9.740079,-22.876966 18.6,-31.6 0.8,-0.7 1.6,-0.4 1.7,0.6 l 0.2,0.7 c 0.1,1 0,2.6 -0.3,3.6 -3.5,8.7 -13,15.9 -8.8,28 0.3,0.9 1.5,1.7 2.5,1.9 0.488504,0.0662 0.988663,0.14139 1.499454,0.22466 5.65838,0.9224 12.621526,2.84093 19.500546,4.67534 1,0.2 2,-0.3 2.6,-1.2 z"
   transform="matrix(-0.65331,-0.35276,0.36024,-0.6643,202.2,16.9)"
   id="path24077-1-1"
   sodipodi:nodetypes="ccccccccccccccccccccccccccccccccssccccccsccccccccccccccscc" />
    <path
   style="opacity:0.3;fill:#ffffff;fill-opacity:1;fill-rule:nonzero;stroke:none;stroke-width:0.361156;stroke-linecap:round;stroke-linejoin:round;stroke-dasharray:none;stroke-opacity:1"
   d="m -61.7,26.4 a 20,20 0 0 0 -4.2,0.4 20.4,20.4 0 0 0 -9.6,4.6 11,11 0 0 0 -2.4,2.8 c -0.8,1.4 -0.4,2.1 -0.4,2.1 0,0 -0.2,-0.7 0.7,-2 0.6,-0.7 1.3,-1.5 2.5,-2.3 a 23.6,23.6 0 0 1 9.4,-4 22.2,22.2 0 0 1 22.7,9 10.8,10.8 0 0 1 0.8,1.4 10.4,10.4 0 0 0 -0.7,-1.5 21.8,21.8 0 0 0 -18.8,-10.5 z m 19.5,12 z m -49,-10.8 a 18.5,18.5 0 0 0 -4.2,0.5 32.3,32.3 0 0 0 -8.5,3.2 42.4,42.4 0 0 0 -12.1,8.4 5.5,5.5 0 0 0 -1.3,1.9 0.9,0.9 0 0 0 -0.1,0.4 l 0.1,-0.4 c 0.2,-0.6 0.6,-1 1.4,-1.8 3,-2.8 6,-4.4 12.5,-7.6 a 35.5,35.5 0 0 1 8.3,-3 c 3.7,-0.7 7,-0.7 9.7,0.4 a 7.5,7.5 0 0 1 2.5,1.6 c 1,1 1,1.7 1,1.7 0,0 0.1,-0.8 -0.8,-2 a 7.5,7.5 0 0 0 -2.5,-2 13.2,13.2 0 0 0 -6,-1.3 z m 10.4,0.9 c 0,0 0.5,9.9 2.1,19.6 a 563.4,563.4 0 0 0 15.3,64.2 c 0,0 -1.2,-7.7 -3.2,-15.4 l -1,-4.3 1,-0.2 a 7.4,7.4 0 0 1 4.3,1.1 l 1,0.8 a 10.7,10.7 0 0 1 2.9,3.2 12.6,12.6 0 0 1 1.3,4.2 c 0,0 0,-2 -1,-4.3 A 10.2,10.2 0 0 0 -61,94 a 7.8,7.8 0 0 0 -2.7,-1.6 5.2,5.2 0 0 0 -3,-0.2 l -1,0.4 a 536,536 0 0 1 -9.7,-44.7 z m -7,10.7 c -2.3,0 -4.7,0.7 -7.2,1.7 a 75,75 0 0 0 -8,3.7 36.7,36.7 0 0 0 -13.4,11 17.3,17.3 0 0 0 -2,3.8 7,7 0 0 0 -0.4,1.3 v -0.3 l 0.5,-1 c 0.4,-0.9 1,-2 2.2,-3.5 3,-3.7 7.1,-7 13.6,-10.3 a 93,93 0 0 1 8,-3.6 21,21 0 0 1 8.3,-2 9,9 0 0 1 5,1.7 c 0,0 -1.6,-2 -5,-2.4 l -1.5,-0.1 z m 23.8,4.3 a 12.3,12.3 0 0 0 -5,0.8 c -3.2,1.4 -4,3.8 -4,3.8 0,0 1.3,-2.2 4.3,-3 a 16,16 0 0 1 7.9,-0.1 c 2.4,0.4 4.8,1 7.2,1.7 a 27.7,27.7 0 0 1 16.4,13 13.2,13.2 0 0 1 0.8,1.7 L -36.5,61 a 12.7,12.7 0 0 0 -0.6,-1.4 27,27 0 0 0 -16.2,-14 53,53 0 0 0 -7.3,-1.8 z m 27.6,18 z M -83.9,53 a 20,20 0 0 0 -10.1,3 49.3,49.3 0 0 0 -7.6,5.6 29.9,29.9 0 0 0 -10.1,13.2 10.6,10.6 0 0 0 -0.7,3.5 3.9,3.9 0 0 0 0.2,1.1 3.9,3.9 0 0 1 -0.1,-1 c 0,-1 0.3,-2 1,-3.5 a 32,32 0 0 1 10.5,-12.3 57.7,57.7 0 0 1 7.5,-5.2 c 3.5,-2 6.3,-3.3 9.4,-3.6 3.2,-0.3 5,0.9 5,0.9 0,0 -1.5,-1.7 -5,-1.7 z m 17.1,7 c -0.7,0 -1.4,0.2 -2,0.3 -2.8,0.6 -3.2,2.4 -3.2,2.4 0,0 0.9,-1.6 3.3,-1.7 2.6,-0.1 4.9,0.8 8.2,1.9 3,1 5.7,2.2 8.4,3.4 6.3,2.9 10,6 11.5,10.2 a 9,9 0 0 1 0.6,3.7 4.5,4.5 0 0 1 -0.2,1.3 h -0.1 a 1,1 0 0 0 0.2,-0.2 l 0.3,-1 a 8.9,8.9 0 0 0 -0.3,-4 c -1.3,-4.2 -5,-8.1 -11.5,-11.2 A 76.4,76.4 0 0 0 -60,61.5 c -2.4,-0.9 -4.7,-1.4 -6.8,-1.4 z m -52,0.7 z m 0,0 z m 82.4,0.8 z m -43.7,6.7 c -1.9,0 -4,0.6 -6,1.9 l -1.6,1.2 a 24.1,24.1 0 0 0 -5,6.1 39.8,39.8 0 0 0 -5.3,13.1 c -0.2,1.5 -0.2,2.5 -0.2,3.3 a 4.5,4.5 0 0 0 0.2,1 4.5,4.5 0 0 1 -0.1,-1 c 0,-0.8 0.1,-1.8 0.5,-3.2 0.9,-3.7 2.6,-7.6 5.8,-12.6 a 25.3,25.3 0 0 1 4.8,-5.8 l 1.6,-1.1 a 12.8,12.8 0 0 1 5.7,-2.2 c 2,-0.2 3.3,0.4 3.3,0.4 0,0 -1,-1 -3.3,-1 h -0.4 z m 12.9,12 h -1.3 c -0.7,0.3 -1,0.7 -1,0.7 0,0 0.3,-0.3 1,-0.4 0.6,0 1,0 1.7,0.2 a 21.3,21.3 0 0 1 5.4,2 13.6,13.6 0 0 1 2.8,1.9 c 2.3,2 4,4.9 5.2,6.8 a 67.3,67.3 0 0 1 2.4,4 2.3,2.3 0 0 1 0.1,0.4 v -0.1 a 16.6,16.6 0 0 0 -0.5,-1.2 49.6,49.6 0 0 0 -1.6,-3.3 c -1,-2 -2.6,-5 -5,-7.3 a 13,13 0 0 0 -4,-2.6 13,13 0 0 0 -5.2,-1.2 z m -3.3,9 c 0,0 -1.2,0 -2.4,0.6 a 13.2,13.2 0 0 0 -3.4,2.3 15.2,15.2 0 0 0 -1.6,1.9 l -0.8,1.3 a 14.3,14.3 0 0 0 -1.3,6 17.3,17.3 0 0 0 0.1,3 0.4,0.4 0 0 0 0,0.1 h 0.1 a 5.6,5.6 0 0 1 0,-0.7 24.5,24.5 0 0 1 1.9,-8 10.8,10.8 0 0 1 2.3,-3 29.2,29.2 0 0 1 3,-2.5 c 1.2,-0.8 2,-1 2,-1 z m 19.6,6.6 z"
   transform="matrix(-0.65331,-0.35276,0.36024,-0.6643,202.2,16.9)"
   id="path24079-2-8" />
  </g><g
       id="g24081-9-6-9"
       transform="rotate(173.38412,171.36077,92.047025)"
       inkscape:transform-center-x="7.9575029"
       inkscape:transform-center-y="28.503853">
    <path
   style="fill:url(#linearGradient24073-3-7-7);fill-opacity:1;stroke:none;stroke-width:0.264583px;stroke-linecap:butt;stroke-linejoin:miter;stroke-opacity:1"
   d="m -60.1,114.7 c 2.6,-4.7 8.3,-11.2 13.5,-17.4 a 4,4 0 0 0 0.8,-3.2 c -1.9,-6.7 -7.8,-13 -18.6,-18.8 a 4.6,4.6 0 0 1 -2,-2.7 l -0.1,-0.3 c -0.3,-1 0.4,-1.8 1.4,-1.7 11.7,0.6 18.9,7 23.6,17.1 0.5,1 1.3,1 1.9,0.2 a 21,21 0 0 0 4,-11.4 9.6,9.6 0 0 0 -2.1,-6 61,61 0 0 0 -27.5,-15 3.2,3.2 0 0 1 -2,-2.3 l -0.4,-1.9 c -0.2,-1 0.5,-1.6 1.5,-1.5 14.9,2.8 21.3,5.1 28.3,17.5 0.5,1 1.4,1 2,0.1 2.7,-4.7 2.4,-9.6 1.7,-14.7 a 7.9,7.9 0 0 0 -4,-5.4 74.7,74.7 0 0 0 -25.4,-6.3 2.4,2.4 0 0 1 -2.2,-1.9 c 0,-0.6 0.7,-1.2 1.7,-1.3 9.2,-1.1 14.8,2 22,6.5 2,1.3 3.9,0.3 3.6,-2 -2.4,-22 -30.7,-28.6 -41,-16 -0.6,0.8 -1.6,1 -2.4,0.2 -16.6,-14.8 -33.8,1.1 -39.3,18.7 -0.8,2.3 0.5,3.1 2.5,1.8 6.7,-4.5 12.5,-8.6 20,-10.9 a 2,2 0 0 1 2.4,1.3 c 0.2,0.3 -0.5,0.9 -1.5,1.2 -9,3 -16,7 -22.1,13.5 -2,2 -3.4,6.2 -3.4,9 v 4.6 c 0,2.9 1.3,3.3 3.2,1.1 a 84,84 0 0 1 28.1,-20 c 1,-0.4 2,0 2.2,1 0.1,0.6 -0.4,1.5 -1.2,2 -11,7.7 -22.2,15.3 -28,25.7 -0.5,1 -0.6,2.5 -0.2,3.4 l 4.4,11 c 0.4,1 1,1 1.4,0 a 45.4,45.4 0 0 1 27.3,-29.3 2.5,2.5 0 0 1 2.9,0.7 c 0.3,0.4 0,1.2 -0.8,1.9 a 76.7,76.7 0 0 0 -22.3,30.2 6.8,6.8 0 0 0 0.7,5.9 l 6.3,8.8 c 0.6,0.8 1.3,0.7 1.6,-0.3 A 71,71 0 0 1 -79,76.2 c 0.8,-0.7 1.6,-0.4 1.7,0.6 l 0.2,0.7 c 0.1,1 0,2.6 -0.3,3.6 -3.5,8.7 -13,15.9 -8.8,28 0.3,0.9 1.5,1.7 2.5,1.9 5.9,0.8 13.5,2.9 21,4.9 1,0.2 2,-0.3 2.6,-1.2 z"
   transform="matrix(-0.65331,-0.35276,0.36024,-0.6643,202.2,16.9)"
   id="path24077-1-1-2" />
    <path
   style="opacity:0.3;fill:#ffffff;fill-opacity:1;fill-rule:nonzero;stroke:none;stroke-width:0.361156;stroke-linecap:round;stroke-linejoin:round;stroke-dasharray:none;stroke-opacity:1"
   d="m -61.7,26.4 a 20,20 0 0 0 -4.2,0.4 20.4,20.4 0 0 0 -9.6,4.6 11,11 0 0 0 -2.4,2.8 c -0.8,1.4 -0.4,2.1 -0.4,2.1 0,0 -0.2,-0.7 0.7,-2 0.6,-0.7 1.3,-1.5 2.5,-2.3 a 23.6,23.6 0 0 1 9.4,-4 22.2,22.2 0 0 1 22.7,9 10.8,10.8 0 0 1 0.8,1.4 10.4,10.4 0 0 0 -0.7,-1.5 21.8,21.8 0 0 0 -18.8,-10.5 z m 19.5,12 z m -49,-10.8 a 18.5,18.5 0 0 0 -4.2,0.5 32.3,32.3 0 0 0 -8.5,3.2 42.4,42.4 0 0 0 -12.1,8.4 5.5,5.5 0 0 0 -1.3,1.9 0.9,0.9 0 0 0 -0.1,0.4 l 0.1,-0.4 c 0.2,-0.6 0.6,-1 1.4,-1.8 3,-2.8 6,-4.4 12.5,-7.6 a 35.5,35.5 0 0 1 8.3,-3 c 3.7,-0.7 7,-0.7 9.7,0.4 a 7.5,7.5 0 0 1 2.5,1.6 c 1,1 1,1.7 1,1.7 0,0 0.1,-0.8 -0.8,-2 a 7.5,7.5 0 0 0 -2.5,-2 13.2,13.2 0 0 0 -6,-1.3 z m 10.4,0.9 c 0,0 0.5,9.9 2.1,19.6 a 563.4,563.4 0 0 0 15.3,64.2 c 0,0 -1.2,-7.7 -3.2,-15.4 l -1,-4.3 1,-0.2 a 7.4,7.4 0 0 1 4.3,1.1 l 1,0.8 a 10.7,10.7 0 0 1 2.9,3.2 12.6,12.6 0 0 1 1.3,4.2 c 0,0 0,-2 -1,-4.3 A 10.2,10.2 0 0 0 -61,94 a 7.8,7.8 0 0 0 -2.7,-1.6 5.2,5.2 0 0 0 -3,-0.2 l -1,0.4 a 536,536 0 0 1 -9.7,-44.7 z m -7,10.7 c -2.3,0 -4.7,0.7 -7.2,1.7 a 75,75 0 0 0 -8,3.7 36.7,36.7 0 0 0 -13.4,11 17.3,17.3 0 0 0 -2,3.8 7,7 0 0 0 -0.4,1.3 v -0.3 l 0.5,-1 c 0.4,-0.9 1,-2 2.2,-3.5 3,-3.7 7.1,-7 13.6,-10.3 a 93,93 0 0 1 8,-3.6 21,21 0 0 1 8.3,-2 9,9 0 0 1 5,1.7 c 0,0 -1.6,-2 -5,-2.4 l -1.5,-0.1 z m 23.8,4.3 a 12.3,12.3 0 0 0 -5,0.8 c -3.2,1.4 -4,3.8 -4,3.8 0,0 1.3,-2.2 4.3,-3 a 16,16 0 0 1 7.9,-0.1 c 2.4,0.4 4.8,1 7.2,1.7 a 27.7,27.7 0 0 1 16.4,13 13.2,13.2 0 0 1 0.8,1.7 L -36.5,61 a 12.7,12.7 0 0 0 -0.6,-1.4 27,27 0 0 0 -16.2,-14 53,53 0 0 0 -7.3,-1.8 z m 27.6,18 z M -83.9,53 a 20,20 0 0 0 -10.1,3 49.3,49.3 0 0 0 -7.6,5.6 29.9,29.9 0 0 0 -10.1,13.2 10.6,10.6 0 0 0 -0.7,3.5 3.9,3.9 0 0 0 0.2,1.1 3.9,3.9 0 0 1 -0.1,-1 c 0,-1 0.3,-2 1,-3.5 a 32,32 0 0 1 10.5,-12.3 57.7,57.7 0 0 1 7.5,-5.2 c 3.5,-2 6.3,-3.3 9.4,-3.6 3.2,-0.3 5,0.9 5,0.9 0,0 -1.5,-1.7 -5,-1.7 z m 17.1,7 c -0.7,0 -1.4,0.2 -2,0.3 -2.8,0.6 -3.2,2.4 -3.2,2.4 0,0 0.9,-1.6 3.3,-1.7 2.6,-0.1 4.9,0.8 8.2,1.9 3,1 5.7,2.2 8.4,3.4 6.3,2.9 10,6 11.5,10.2 a 9,9 0 0 1 0.6,3.7 4.5,4.5 0 0 1 -0.2,1.3 h -0.1 a 1,1 0 0 0 0.2,-0.2 l 0.3,-1 a 8.9,8.9 0 0 0 -0.3,-4 c -1.3,-4.2 -5,-8.1 -11.5,-11.2 A 76.4,76.4 0 0 0 -60,61.5 c -2.4,-0.9 -4.7,-1.4 -6.8,-1.4 z m -52,0.7 z m 0,0 z m 82.4,0.8 z m -43.7,6.7 c -1.9,0 -4,0.6 -6,1.9 l -1.6,1.2 a 24.1,24.1 0 0 0 -5,6.1 39.8,39.8 0 0 0 -5.3,13.1 c -0.2,1.5 -0.2,2.5 -0.2,3.3 a 4.5,4.5 0 0 0 0.2,1 4.5,4.5 0 0 1 -0.1,-1 c 0,-0.8 0.1,-1.8 0.5,-3.2 0.9,-3.7 2.6,-7.6 5.8,-12.6 a 25.3,25.3 0 0 1 4.8,-5.8 l 1.6,-1.1 a 12.8,12.8 0 0 1 5.7,-2.2 c 2,-0.2 3.3,0.4 3.3,0.4 0,0 -1,-1 -3.3,-1 h -0.4 z m 12.9,12 h -1.3 c -0.7,0.3 -1,0.7 -1,0.7 0,0 0.3,-0.3 1,-0.4 0.6,0 1,0 1.7,0.2 a 21.3,21.3 0 0 1 5.4,2 13.6,13.6 0 0 1 2.8,1.9 c 2.3,2 4,4.9 5.2,6.8 a 67.3,67.3 0 0 1 2.4,4 2.3,2.3 0 0 1 0.1,0.4 v -0.1 a 16.6,16.6 0 0 0 -0.5,-1.2 49.6,49.6 0 0 0 -1.6,-3.3 c -1,-2 -2.6,-5 -5,-7.3 a 13,13 0 0 0 -4,-2.6 13,13 0 0 0 -5.2,-1.2 z m -3.3,9 c 0,0 -1.2,0 -2.4,0.6 a 13.2,13.2 0 0 0 -3.4,2.3 15.2,15.2 0 0 0 -1.6,1.9 l -0.8,1.3 a 14.3,14.3 0 0 0 -1.3,6 17.3,17.3 0 0 0 0.1,3 0.4,0.4 0 0 0 0,0.1 h 0.1 a 5.6,5.6 0 0 1 0,-0.7 24.5,24.5 0 0 1 1.9,-8 10.8,10.8 0 0 1 2.3,-3 29.2,29.2 0 0 1 3,-2.5 c 1.2,-0.8 2,-1 2,-1 z m 19.6,6.6 z"
   transform="matrix(-0.65331,-0.35276,0.36024,-0.6643,202.2,16.9)"
   id="path24079-2-8-2" />
  </g><g
       id="g23949"
       transform="rotate(120,149.94262,24.066136)">
    <path
   style="fill:url(#linearGradient23951);fill-opacity:1;stroke:none;stroke-width:0.264583px;stroke-linecap:butt;stroke-linejoin:miter;stroke-opacity:1"
   d="m -60.1,114.7 c 2.6,-4.7 8.3,-11.2 13.5,-17.4 a 4,4 0 0 0 0.8,-3.2 c -1.9,-6.7 -7.8,-13 -18.6,-18.8 a 4.6,4.6 0 0 1 -2,-2.7 l -0.1,-0.3 c -0.3,-1 0.4,-1.8 1.4,-1.7 11.7,0.6 18.9,7 23.6,17.1 0.5,1 1.3,1 1.9,0.2 a 21,21 0 0 0 4,-11.4 9.6,9.6 0 0 0 -2.1,-6 61,61 0 0 0 -27.5,-15 3.2,3.2 0 0 1 -2,-2.3 l -0.4,-1.9 c -0.2,-1 0.5,-1.6 1.5,-1.5 14.9,2.8 21.3,5.1 28.3,17.5 0.5,1 1.4,1 2,0.1 2.7,-4.7 2.4,-9.6 1.7,-14.7 a 7.9,7.9 0 0 0 -4,-5.4 74.7,74.7 0 0 0 -25.4,-6.3 2.4,2.4 0 0 1 -2.2,-1.9 c 0,-0.6 0.7,-1.2 1.7,-1.3 9.2,-1.1 14.8,2 22,6.5 2,1.3 3.9,0.3 3.6,-2 -2.4,-22 -30.7,-28.6 -41,-16 -0.6,0.8 -1.6,1 -2.4,0.2 -16.6,-14.8 -33.8,1.1 -39.3,18.7 -0.8,2.3 0.5,3.1 2.5,1.8 6.7,-4.5 12.5,-8.6 20,-10.9 a 2,2 0 0 1 2.4,1.3 c 0.2,0.3 -0.5,0.9 -1.5,1.2 -9,3 -16,7 -22.1,13.5 -2,2 -3.4,6.2 -3.4,9 v 4.6 c 0,2.9 1.3,3.3 3.2,1.1 a 84,84 0 0 1 28.1,-20 c 1,-0.4 2,0 2.2,1 0.1,0.6 -0.4,1.5 -1.2,2 -11,7.7 -22.2,15.3 -28,25.7 -0.5,1 -0.6,2.5 -0.2,3.4 l 4.4,11 c 0.4,1 1,1 1.4,0 a 45.4,45.4 0 0 1 27.3,-29.3 2.5,2.5 0 0 1 2.9,0.7 c 0.3,0.4 0,1.2 -0.8,1.9 a 76.7,76.7 0 0 0 -22.3,30.2 6.8,6.8 0 0 0 0.7,5.9 l 6.3,8.8 c 0.6,0.8 1.3,0.7 1.6,-0.3 A 71,71 0 0 1 -79,76.2 c 0.8,-0.7 1.6,-0.4 1.7,0.6 l 0.2,0.7 c 0.1,1 0,2.6 -0.3,3.6 -3.5,8.7 -13,15.9 -8.8,28 0.3,0.9 1.5,1.7 2.5,1.9 5.9,0.8 13.5,2.9 21,4.9 1,0.2 2,-0.3 2.6,-1.2 z"
   transform="matrix(-0.65331,-0.35276,0.36024,-0.6643,202.2,16.9)"
   id="path23945" />
    <path
   style="opacity:0.3;fill:#ffffff;fill-opacity:1;fill-rule:nonzero;stroke:none;stroke-width:0.361156;stroke-linecap:round;stroke-linejoin:round;stroke-dasharray:none;stroke-opacity:1"
   d="m -61.7,26.4 a 20,20 0 0 0 -4.2,0.4 20.4,20.4 0 0 0 -9.6,4.6 11,11 0 0 0 -2.4,2.8 c -0.8,1.4 -0.4,2.1 -0.4,2.1 0,0 -0.2,-0.7 0.7,-2 0.6,-0.7 1.3,-1.5 2.5,-2.3 a 23.6,23.6 0 0 1 9.4,-4 22.2,22.2 0 0 1 22.7,9 10.8,10.8 0 0 1 0.8,1.4 10.4,10.4 0 0 0 -0.7,-1.5 21.8,21.8 0 0 0 -18.8,-10.5 z m 19.5,12 z m -49,-10.8 a 18.5,18.5 0 0 0 -4.2,0.5 32.3,32.3 0 0 0 -8.5,3.2 42.4,42.4 0 0 0 -12.1,8.4 5.5,5.5 0 0 0 -1.3,1.9 0.9,0.9 0 0 0 -0.1,0.4 l 0.1,-0.4 c 0.2,-0.6 0.6,-1 1.4,-1.8 3,-2.8 6,-4.4 12.5,-7.6 a 35.5,35.5 0 0 1 8.3,-3 c 3.7,-0.7 7,-0.7 9.7,0.4 a 7.5,7.5 0 0 1 2.5,1.6 c 1,1 1,1.7 1,1.7 0,0 0.1,-0.8 -0.8,-2 a 7.5,7.5 0 0 0 -2.5,-2 13.2,13.2 0 0 0 -6,-1.3 z m 10.4,0.9 c 0,0 0.5,9.9 2.1,19.6 a 563.4,563.4 0 0 0 15.3,64.2 c 0,0 -1.2,-7.7 -3.2,-15.4 l -1,-4.3 1,-0.2 a 7.4,7.4 0 0 1 4.3,1.1 l 1,0.8 a 10.7,10.7 0 0 1 2.9,3.2 12.6,12.6 0 0 1 1.3,4.2 c 0,0 0,-2 -1,-4.3 A 10.2,10.2 0 0 0 -61,94 a 7.8,7.8 0 0 0 -2.7,-1.6 5.2,5.2 0 0 0 -3,-0.2 l -1,0.4 a 536,536 0 0 1 -9.7,-44.7 z m -7,10.7 c -2.3,0 -4.7,0.7 -7.2,1.7 a 75,75 0 0 0 -8,3.7 36.7,36.7 0 0 0 -13.4,11 17.3,17.3 0 0 0 -2,3.8 7,7 0 0 0 -0.4,1.3 v -0.3 l 0.5,-1 c 0.4,-0.9 1,-2 2.2,-3.5 3,-3.7 7.1,-7 13.6,-10.3 a 93,93 0 0 1 8,-3.6 21,21 0 0 1 8.3,-2 9,9 0 0 1 5,1.7 c 0,0 -1.6,-2 -5,-2.4 l -1.5,-0.1 z m 23.8,4.3 a 12.3,12.3 0 0 0 -5,0.8 c -3.2,1.4 -4,3.8 -4,3.8 0,0 1.3,-2.2 4.3,-3 a 16,16 0 0 1 7.9,-0.1 c 2.4,0.4 4.8,1 7.2,1.7 a 27.7,27.7 0 0 1 16.4,13 13.2,13.2 0 0 1 0.8,1.7 L -36.5,61 a 12.7,12.7 0 0 0 -0.6,-1.4 27,27 0 0 0 -16.2,-14 53,53 0 0 0 -7.3,-1.8 z m 27.6,18 z M -83.9,53 a 20,20 0 0 0 -10.1,3 49.3,49.3 0 0 0 -7.6,5.6 29.9,29.9 0 0 0 -10.1,13.2 10.6,10.6 0 0 0 -0.7,3.5 3.9,3.9 0 0 0 0.2,1.1 3.9,3.9 0 0 1 -0.1,-1 c 0,-1 0.3,-2 1,-3.5 a 32,32 0 0 1 10.5,-12.3 57.7,57.7 0 0 1 7.5,-5.2 c 3.5,-2 6.3,-3.3 9.4,-3.6 3.2,-0.3 5,0.9 5,0.9 0,0 -1.5,-1.7 -5,-1.7 z m 17.1,7 c -0.7,0 -1.4,0.2 -2,0.3 -2.8,0.6 -3.2,2.4 -3.2,2.4 0,0 0.9,-1.6 3.3,-1.7 2.6,-0.1 4.9,0.8 8.2,1.9 3,1 5.7,2.2 8.4,3.4 6.3,2.9 10,6 11.5,10.2 a 9,9 0 0 1 0.6,3.7 4.5,4.5 0 0 1 -0.2,1.3 h -0.1 a 1,1 0 0 0 0.2,-0.2 l 0.3,-1 a 8.9,8.9 0 0 0 -0.3,-4 c -1.3,-4.2 -5,-8.1 -11.5,-11.2 A 76.4,76.4 0 0 0 -60,61.5 c -2.4,-0.9 -4.7,-1.4 -6.8,-1.4 z m -52,0.7 z m 0,0 z m 82.4,0.8 z m -43.7,6.7 c -1.9,0 -4,0.6 -6,1.9 l -1.6,1.2 a 24.1,24.1 0 0 0 -5,6.1 39.8,39.8 0 0 0 -5.3,13.1 c -0.2,1.5 -0.2,2.5 -0.2,3.3 a 4.5,4.5 0 0 0 0.2,1 4.5,4.5 0 0 1 -0.1,-1 c 0,-0.8 0.1,-1.8 0.5,-3.2 0.9,-3.7 2.6,-7.6 5.8,-12.6 a 25.3,25.3 0 0 1 4.8,-5.8 l 1.6,-1.1 a 12.8,12.8 0 0 1 5.7,-2.2 c 2,-0.2 3.3,0.4 3.3,0.4 0,0 -1,-1 -3.3,-1 h -0.4 z m 12.9,12 h -1.3 c -0.7,0.3 -1,0.7 -1,0.7 0,0 0.3,-0.3 1,-0.4 0.6,0 1,0 1.7,0.2 a 21.3,21.3 0 0 1 5.4,2 13.6,13.6 0 0 1 2.8,1.9 c 2.3,2 4,4.9 5.2,6.8 a 67.3,67.3 0 0 1 2.4,4 2.3,2.3 0 0 1 0.1,0.4 v -0.1 a 16.6,16.6 0 0 0 -0.5,-1.2 49.6,49.6 0 0 0 -1.6,-3.3 c -1,-2 -2.6,-5 -5,-7.3 a 13,13 0 0 0 -4,-2.6 13,13 0 0 0 -5.2,-1.2 z m -3.3,9 c 0,0 -1.2,0 -2.4,0.6 a 13.2,13.2 0 0 0 -3.4,2.3 15.2,15.2 0 0 0 -1.6,1.9 l -0.8,1.3 a 14.3,14.3 0 0 0 -1.3,6 17.3,17.3 0 0 0 0.1,3 0.4,0.4 0 0 0 0,0.1 h 0.1 a 5.6,5.6 0 0 1 0,-0.7 24.5,24.5 0 0 1 1.9,-8 10.8,10.8 0 0 1 2.3,-3 29.2,29.2 0 0 1 3,-2.5 c 1.2,-0.8 2,-1 2,-1 z m 19.6,6.6 z"
   transform="matrix(-0.65331,-0.35276,0.36024,-0.6643,202.2,16.9)"
   id="path23947" />
  </g><g
       id="g23959"
       transform="rotate(136.56797,182.86108,62.898642)">
    <path
   style="fill:url(#linearGradient23961);fill-opacity:1;stroke:none;stroke-width:0.264583px;stroke-linecap:butt;stroke-linejoin:miter;stroke-opacity:1"
   d="M -60.699478,119.61525 C -58.099478,114.91525 -51.8,103.5 -46.6,97.3 c 0.714524,-0.901947 1.006016,-2.067918 0.8,-3.2 -1.9,-6.7 -7.8,-13 -18.6,-18.8 -0.983277,-0.615608 -1.697645,-1.580005 -2,-2.7 l -0.1,-0.3 c -0.3,-1 0.4,-1.8 1.4,-1.7 11.7,0.6 18.9,7 23.6,17.1 0.5,1 1.3,1 1.9,0.2 2.421225,-3.326146 3.812128,-7.290221 4,-11.4 0.0017,-2.18045 -0.738922,-4.296523 -2.1,-6 -7.704695,-7.308532 -17.183916,-12.479015 -27.5,-15 -1.012421,-0.379549 -1.764712,-1.244683 -2,-2.3 l -0.4,-1.9 c -0.2,-1 0.5,-1.6 1.5,-1.5 14.9,2.8 21.3,5.1 28.3,17.5 0.5,1 1.4,1 2,0.1 2.7,-4.7 2.4,-9.6 1.7,-14.7 -0.463127,-2.305643 -1.929384,-4.285089 -4,-5.4 -8.029994,-3.578257 -16.628582,-5.710977 -25.4,-6.3 -1.0771,-0.06669 -1.977237,-0.844079 -2.2,-1.9 0,-0.6 0.7,-1.2 1.7,-1.3 9.2,-1.1 14.8,2 22,6.5 2,1.3 3.9,0.3 3.6,-2 -2.4,-22 -30.7,-28.6 -41,-16 -0.6,0.8 -1.6,1 -2.4,0.2 -16.6,-14.8 -33.8,1.1 -39.3,18.7 -0.8,2.3 0.5,3.1 2.5,1.8 6.7,-4.5 12.5,-8.6 20,-10.9 1.017326,-0.264728 2.065958,0.303282 2.4,1.3 0.2,0.3 -0.5,0.9 -1.5,1.2 -9,3 -16,7 -22.1,13.5 -2,2 -3.4,6.2 -3.4,9 v 4.6 c 0,2.9 1.3,3.3 3.2,1.1 7.88242,-8.538594 17.45075,-15.348798 28.1,-20 1,-0.4 2,0 2.2,1 0.1,0.6 -0.4,1.5 -1.2,2 -11,7.7 -22.2,15.3 -28,25.7 -0.5,1 -0.6,2.5 -0.2,3.4 l 4.4,11 c 0.4,1 1,1 1.4,0 4.06804,-13.469381 14.151348,-24.291391 27.3,-29.3 1.015221,-0.4322 2.193728,-0.147733 2.9,0.7 0.3,0.4 0,1.2 -0.8,1.9 -9.820187,8.064032 -17.48304,18.441531 -22.3,30.2 -0.68362,1.969969 -0.42561,4.144685 0.7,5.9 l 6.3,8.8 c 0.6,0.8 1.3,0.7 1.6,-0.3 3.326181,-11.980235 9.740079,-22.876966 18.6,-31.6 0.8,-0.7 1.6,-0.4 1.7,0.6 l 0.2,0.7 c 0.1,1 0,2.6 -0.3,3.6 -3.5,8.7 -13.599478,20.81525 -9.399478,32.91525 0.3,0.9 1.5,1.7 2.5,1.9 5.9,0.8 13.5,2.9 21,4.9 0,0 2,-0.3 2.6,-1.2 z"
   transform="matrix(-0.65331,-0.35276,0.36024,-0.6643,202.2,16.9)"
   id="path23955"
   sodipodi:nodetypes="ccccccccccccccccccccccccccccccccssccccccscccccccccccccccc" />
    <path
   style="opacity:0.3;fill:#ffffff;fill-opacity:1;fill-rule:nonzero;stroke:none;stroke-width:0.361156;stroke-linecap:round;stroke-linejoin:round;stroke-dasharray:none;stroke-opacity:1"
   d="m -61.7,26.4 c -1.410187,-0.01512 -2.818018,0.118961 -4.2,0.4 -3.550719,0.656679 -6.863511,2.244059 -9.6,4.6 -0.951867,0.791625 -1.763268,1.738259 -2.4,2.8 -0.8,1.4 -0.4,2.1 -0.4,2.1 0,0 -0.2,-0.7 0.7,-2 0.6,-0.7 1.3,-1.5 2.5,-2.3 2.803714,-2.003635 6.012207,-3.368951 9.4,-4 8.685208,-1.804695 17.611032,1.734178 22.7,9 0.30118,0.44608 0.568591,0.914051 0.8,1.4 -0.193109,-0.517804 -0.427183,-1.019393 -0.7,-1.5 -3.980075,-6.56676 -11.12144,-10.555289 -18.8,-10.5 z m -29.5,1.2 c -1.414511,0.0056 -2.823719,0.173314 -4.2,0.5 -2.969908,0.661004 -5.83152,1.738318 -8.5,3.2 -4.49253,2.072592 -8.58765,4.915483 -12.1,8.4 -0.56251,0.534535 -1.00555,1.182051 -1.3,1.9 -0.0638,0.123799 -0.0981,0.260725 -0.1,0.4 l 0.1,-0.4 c 0.2,-0.6 0.6,-1 1.4,-1.8 3,-2.8 6,-4.4 12.5,-7.6 2.63111,-1.341352 5.419317,-2.349137 8.3,-3 3.7,-0.7 7,-0.7 9.7,0.4 0.931601,0.361463 1.781576,0.905448 2.5,1.6 1,1 1,1.7 1,1.7 0,0 0.1,-0.8 -0.8,-2 -0.67967,-0.838834 -1.53243,-1.521042 -2.5,-2 -1.870034,-0.898867 -3.925625,-1.344245 -6,-1.3 z m 10.4,0.9 c 0,0 0.5,9.9 2.1,19.6 3.841119,21.680584 9.940552,49.130854 14.20709,68.6486 0,0 -0.10709,-12.1486 -2.10709,-19.8486 l -1,-4.3 1,-0.2 c 1.512122,-0.08195 3.012983,0.301993 4.3,1.1 l 1,0.8 c 1.174112,0.858477 2.160874,1.947317 2.9,3.2 0.676127,1.312994 1.116158,2.73463 1.3,4.2 0,0 0,-2 -1,-4.3 -0.703465,-1.33376 -1.693899,-2.494958 -2.9,-3.4 -0.782298,-0.71076 -1.70089,-1.255111 -2.7,-1.6 -0.958489,-0.360621 -2.002123,-0.430197 -3,-0.2 l -1,0.4 c -3.867907,-14.755189 -7.104186,-29.668764 -9.7,-44.7 z m -7,10.7 c -2.3,0 -4.7,0.7 -7.2,1.7 -2.736896,1.075435 -5.40817,2.310901 -8,3.7 -5.28104,2.543909 -9.8759,6.315809 -13.4,11 -0.82189,1.17869 -1.49374,2.455188 -2,3.8 -0.17522,0.419321 -0.30918,0.85471 -0.4,1.3 v -0.3 l 0.5,-1 c 0.4,-0.9 1,-2 2.2,-3.5 3,-3.7 7.1,-7 13.6,-10.3 2.608553,-1.325175 5.278189,-2.526511 8,-3.6 2.600534,-1.227962 5.425573,-1.908694 8.3,-2 1.799165,0.05392 3.54083,0.64609 5,1.7 0,0 -1.6,-2 -5,-2.4 l -1.5,-0.1 z m 23.8,4.3 c -1.704113,-0.08299 -3.406855,0.189444 -5,0.8 -3.2,1.4 -4,3.8 -4,3.8 0,0 1.3,-2.2 4.3,-3 2.583572,-0.693187 5.299709,-0.727569 7.9,-0.1 2.4,0.4 4.8,1 7.2,1.7 6.956257,2.022127 12.843551,6.688885 16.4,13 0.306708,0.546945 0.574051,1.115051 0.8,1.7 L -36.5,61 c -0.17181,-0.478251 -0.37217,-0.945758 -0.6,-1.4 -3.239805,-6.699859 -9.101342,-11.765385 -16.2,-14 -2.387653,-0.772059 -4.827123,-1.373572 -7.3,-1.8 z M -83.9,53 c -3.57429,0.0793 -7.061985,1.115244 -10.1,3 -2.706634,1.61926 -5.251632,3.494522 -7.6,5.6 -4.54652,3.357041 -8.0485,7.933891 -10.1,13.2 -0.42949,1.118712 -0.66618,2.302153 -0.7,3.5 0.0135,0.374369 0.0809,0.744842 0.2,1.1 -0.0763,-0.327626 -0.10993,-0.663749 -0.1,-1 0,-1 0.3,-2 1,-3.5 2.38915,-4.931379 6.00461,-9.16663 10.5,-12.3 2.358784,-1.928636 4.866627,-3.667406 7.5,-5.2 3.5,-2 6.3,-3.3 9.4,-3.6 3.2,-0.3 5,0.9 5,0.9 0,0 -1.5,-1.7 -5,-1.7 z m 17.1,7 c -0.7,0 -1.4,0.2 -2,0.3 -2.8,0.6 -3.2,2.4 -3.2,2.4 0,0 0.9,-1.6 3.3,-1.7 2.6,-0.1 4.9,0.8 8.2,1.9 3,1 5.7,2.2 8.4,3.4 6.3,2.9 10,6 11.5,10.2 0.45746,1.177555 0.661893,2.438226 0.6,3.7 -0.0026,0.44079 -0.07002,0.878801 -0.2,1.3 h -0.1 c 0.07581,-0.05685 0.143146,-0.124194 0.2,-0.2 l 0.3,-1 c 0.205685,-1.33879 0.103079,-2.706867 -0.3,-4 -1.3,-4.2 -5,-8.1 -11.5,-11.2 -2.725655,-1.366542 -5.530673,-2.568692 -8.4,-3.6 -2.4,-0.9 -4.7,-1.4 -6.8,-1.4 z m -13.3,8.2 c -1.9,0 -4,0.6 -6,1.9 l -1.6,1.2 c -1.990345,1.744956 -3.67963,3.805884 -5,6.1 -2.533951,4.015557 -4.328906,8.452143 -5.3,13.1 -0.2,1.5 -0.2,2.5 -0.2,3.3 0.02856,0.339835 0.09566,0.675322 0.2,1 -0.07057,-0.328554 -0.10411,-0.663978 -0.1,-1 0,-0.8 0.1,-1.8 0.5,-3.2 0.9,-3.7 2.6,-7.6 5.8,-12.6 1.301781,-2.161905 2.91969,-4.116878 4.8,-5.8 l 1.6,-1.1 c 1.694557,-1.182694 3.650269,-1.93753 5.7,-2.2 2,-0.2 3.3,0.4 3.3,0.4 0,0 -1,-1 -3.3,-1 h -0.4 z m 12.9,12 h -1.3 c -0.7,0.3 -1,0.7 -1,0.7 0,0 0.3,-0.3 1,-0.4 0.6,0 1,0 1.7,0.2 1.882234,0.419156 3.698831,1.091969 5.4,2 1.00879,0.514301 1.949402,1.152573 2.8,1.9 2.3,2 4,4.9 5.2,6.8 0.845982,1.305199 1.646463,2.639334 2.4,4 0.04524,0.130071 0.07871,0.263942 0.1,0.4 v -0.1 c -0.150934,-0.406375 -0.317729,-0.806682 -0.5,-1.2 -0.49247,-1.119348 -1.026168,-2.2201 -1.6,-3.3 -1,-2 -2.6,-5 -5,-7.3 -1.161531,-1.105995 -2.517696,-1.987502 -4,-2.6 -1.631696,-0.755302 -3.402332,-1.16391 -5.2,-1.2 z m -3.3,9 c 0,0 -1.2,0 -2.4,0.6 -1.246336,0.584678 -2.393537,1.360726 -3.4,2.3 -0.584276,0.588622 -1.119395,1.224076 -1.6,1.9 l -0.8,1.3 c -0.862602,1.882299 -1.306156,3.92947 -1.3,6 -0.05365,1.00101 -0.02019,2.00479 0.1,3 -0.0042,0.0332 -0.0042,0.0668 0,0.1 h 0.1 c -0.0146,-0.23311 -0.0146,-0.46689 0,-0.7 0.178131,-2.75466 0.820509,-5.459412 1.9,-8 0.584334,-1.127441 1.362925,-2.142994 2.3,-3 0.943093,-0.899343 1.945334,-1.734544 3,-2.5 1.2,-0.8 2,-1 2,-1 z"
   transform="matrix(-0.65331,-0.35276,0.36024,-0.6643,202.2,16.9)"
   id="path23957"
   sodipodi:nodetypes="cccccccccccccccccccccccccccccccccccccccccccccsccccccccccccccsccccccccccccccccccccccccccccccsccccccccccccccccccccccccccscccccccccccccccccccccccccccccccccc" />
  </g><g
       id="g24071"
       transform="matrix(0.41022231,-0.46418275,0.9601668,0.38418211,-53.014267,216.04139)"
       style="opacity:0.8">
    <path
   style="fill:url(#linearGradient24073);fill-opacity:1;stroke:none;stroke-width:0.264583px;stroke-linecap:butt;stroke-linejoin:miter;stroke-opacity:1"
   d="m -60.1,114.7 c 2.6,-4.7 8.3,-11.2 13.5,-17.4 a 4,4 0 0 0 0.8,-3.2 c -1.9,-6.7 -7.8,-13 -18.6,-18.8 a 4.6,4.6 0 0 1 -2,-2.7 l -0.1,-0.3 c -0.3,-1 0.4,-1.8 1.4,-1.7 11.7,0.6 18.9,7 23.6,17.1 0.5,1 1.3,1 1.9,0.2 a 21,21 0 0 0 4,-11.4 9.6,9.6 0 0 0 -2.1,-6 61,61 0 0 0 -27.5,-15 3.2,3.2 0 0 1 -2,-2.3 l -0.4,-1.9 c -0.2,-1 0.5,-1.6 1.5,-1.5 14.9,2.8 21.3,5.1 28.3,17.5 0.5,1 1.4,1 2,0.1 2.7,-4.7 2.4,-9.6 1.7,-14.7 a 7.9,7.9 0 0 0 -4,-5.4 74.7,74.7 0 0 0 -25.4,-6.3 2.4,2.4 0 0 1 -2.2,-1.9 c 0,-0.6 0.7,-1.2 1.7,-1.3 9.2,-1.1 14.8,2 22,6.5 2,1.3 3.9,0.3 3.6,-2 -2.4,-22 -30.7,-28.6 -41,-16 -0.6,0.8 -1.6,1 -2.4,0.2 -16.6,-14.8 -33.8,1.1 -39.3,18.7 -0.8,2.3 0.5,3.1 2.5,1.8 6.7,-4.5 12.5,-8.6 20,-10.9 a 2,2 0 0 1 2.4,1.3 c 0.2,0.3 -0.5,0.9 -1.5,1.2 -9,3 -16,7 -22.1,13.5 -2,2 -3.4,6.2 -3.4,9 v 4.6 c 0,2.9 1.3,3.3 3.2,1.1 a 84,84 0 0 1 28.1,-20 c 1,-0.4 2,0 2.2,1 0.1,0.6 -0.4,1.5 -1.2,2 -11,7.7 -22.2,15.3 -28,25.7 -0.5,1 -0.6,2.5 -0.2,3.4 l 4.4,11 c 0.4,1 1,1 1.4,0 a 45.4,45.4 0 0 1 27.3,-29.3 2.5,2.5 0 0 1 2.9,0.7 c 0.3,0.4 0,1.2 -0.8,1.9 a 76.7,76.7 0 0 0 -22.3,30.2 6.8,6.8 0 0 0 0.7,5.9 l 6.3,8.8 c 0.6,0.8 1.3,0.7 1.6,-0.3 A 71,71 0 0 1 -79,76.2 c 0.8,-0.7 1.6,-0.4 1.7,0.6 l 0.2,0.7 c 0.1,1 0,2.6 -0.3,3.6 -3.5,8.7 -13,15.9 -8.8,28 0.3,0.9 1.5,1.7 2.5,1.9 5.9,0.8 13.5,2.9 21,4.9 1,0.2 2,-0.3 2.6,-1.2 z"
   transform="matrix(-0.65331,-0.35276,0.36024,-0.6643,202.2,16.9)"
   id="path24067" />
    <path
   style="opacity:0.2;fill:#ffffff;fill-opacity:1;fill-rule:nonzero;stroke:none;stroke-width:0.361156;stroke-linecap:round;stroke-linejoin:round;stroke-dasharray:none;stroke-opacity:1"
   d="m -61.7,26.4 a 20,20 0 0 0 -4.2,0.4 20.4,20.4 0 0 0 -9.6,4.6 11,11 0 0 0 -2.4,2.8 c -0.8,1.4 -0.4,2.1 -0.4,2.1 0,0 -0.2,-0.7 0.7,-2 0.6,-0.7 1.3,-1.5 2.5,-2.3 a 23.6,23.6 0 0 1 9.4,-4 22.2,22.2 0 0 1 22.7,9 10.8,10.8 0 0 1 0.8,1.4 10.4,10.4 0 0 0 -0.7,-1.5 21.8,21.8 0 0 0 -18.8,-10.5 z m 19.5,12 z m -49,-10.8 a 18.5,18.5 0 0 0 -4.2,0.5 32.3,32.3 0 0 0 -8.5,3.2 42.4,42.4 0 0 0 -12.1,8.4 5.5,5.5 0 0 0 -1.3,1.9 0.9,0.9 0 0 0 -0.1,0.4 l 0.1,-0.4 c 0.2,-0.6 0.6,-1 1.4,-1.8 3,-2.8 6,-4.4 12.5,-7.6 a 35.5,35.5 0 0 1 8.3,-3 c 3.7,-0.7 7,-0.7 9.7,0.4 a 7.5,7.5 0 0 1 2.5,1.6 c 1,1 1,1.7 1,1.7 0,0 0.1,-0.8 -0.8,-2 a 7.5,7.5 0 0 0 -2.5,-2 13.2,13.2 0 0 0 -6,-1.3 z m 10.4,0.9 c 0,0 0.5,9.9 2.1,19.6 a 563.4,563.4 0 0 0 15.3,64.2 c 0,0 -1.2,-7.7 -3.2,-15.4 l -1,-4.3 1,-0.2 a 7.4,7.4 0 0 1 4.3,1.1 l 1,0.8 a 10.7,10.7 0 0 1 2.9,3.2 12.6,12.6 0 0 1 1.3,4.2 c 0,0 0,-2 -1,-4.3 A 10.2,10.2 0 0 0 -61,94 a 7.8,7.8 0 0 0 -2.7,-1.6 5.2,5.2 0 0 0 -3,-0.2 l -1,0.4 a 536,536 0 0 1 -9.7,-44.7 z m -7,10.7 c -2.3,0 -4.7,0.7 -7.2,1.7 a 75,75 0 0 0 -8,3.7 36.7,36.7 0 0 0 -13.4,11 17.3,17.3 0 0 0 -2,3.8 7,7 0 0 0 -0.4,1.3 v -0.3 l 0.5,-1 c 0.4,-0.9 1,-2 2.2,-3.5 3,-3.7 7.1,-7 13.6,-10.3 a 93,93 0 0 1 8,-3.6 21,21 0 0 1 8.3,-2 9,9 0 0 1 5,1.7 c 0,0 -1.6,-2 -5,-2.4 l -1.5,-0.1 z m 23.8,4.3 a 12.3,12.3 0 0 0 -5,0.8 c -3.2,1.4 -4,3.8 -4,3.8 0,0 1.3,-2.2 4.3,-3 a 16,16 0 0 1 7.9,-0.1 c 2.4,0.4 4.8,1 7.2,1.7 a 27.7,27.7 0 0 1 16.4,13 13.2,13.2 0 0 1 0.8,1.7 L -36.5,61 a 12.7,12.7 0 0 0 -0.6,-1.4 27,27 0 0 0 -16.2,-14 53,53 0 0 0 -7.3,-1.8 z m 27.6,18 z M -83.9,53 a 20,20 0 0 0 -10.1,3 49.3,49.3 0 0 0 -7.6,5.6 29.9,29.9 0 0 0 -10.1,13.2 10.6,10.6 0 0 0 -0.7,3.5 3.9,3.9 0 0 0 0.2,1.1 3.9,3.9 0 0 1 -0.1,-1 c 0,-1 0.3,-2 1,-3.5 a 32,32 0 0 1 10.5,-12.3 57.7,57.7 0 0 1 7.5,-5.2 c 3.5,-2 6.3,-3.3 9.4,-3.6 3.2,-0.3 5,0.9 5,0.9 0,0 -1.5,-1.7 -5,-1.7 z m 17.1,7 c -0.7,0 -1.4,0.2 -2,0.3 -2.8,0.6 -3.2,2.4 -3.2,2.4 0,0 0.9,-1.6 3.3,-1.7 2.6,-0.1 4.9,0.8 8.2,1.9 3,1 5.7,2.2 8.4,3.4 6.3,2.9 10,6 11.5,10.2 a 9,9 0 0 1 0.6,3.7 4.5,4.5 0 0 1 -0.2,1.3 h -0.1 a 1,1 0 0 0 0.2,-0.2 l 0.3,-1 a 8.9,8.9 0 0 0 -0.3,-4 c -1.3,-4.2 -5,-8.1 -11.5,-11.2 A 76.4,76.4 0 0 0 -60,61.5 c -2.4,-0.9 -4.7,-1.4 -6.8,-1.4 z m -52,0.7 z m 0,0 z m 82.4,0.8 z m -43.7,6.7 c -1.9,0 -4,0.6 -6,1.9 l -1.6,1.2 a 24.1,24.1 0 0 0 -5,6.1 39.8,39.8 0 0 0 -5.3,13.1 c -0.2,1.5 -0.2,2.5 -0.2,3.3 a 4.5,4.5 0 0 0 0.2,1 4.5,4.5 0 0 1 -0.1,-1 c 0,-0.8 0.1,-1.8 0.5,-3.2 0.9,-3.7 2.6,-7.6 5.8,-12.6 a 25.3,25.3 0 0 1 4.8,-5.8 l 1.6,-1.1 a 12.8,12.8 0 0 1 5.7,-2.2 c 2,-0.2 3.3,0.4 3.3,0.4 0,0 -1,-1 -3.3,-1 h -0.4 z m 12.9,12 h -1.3 c -0.7,0.3 -1,0.7 -1,0.7 0,0 0.3,-0.3 1,-0.4 0.6,0 1,0 1.7,0.2 a 21.3,21.3 0 0 1 5.4,2 13.6,13.6 0 0 1 2.8,1.9 c 2.3,2 4,4.9 5.2,6.8 a 67.3,67.3 0 0 1 2.4,4 2.3,2.3 0 0 1 0.1,0.4 v -0.1 a 16.6,16.6 0 0 0 -0.5,-1.2 49.6,49.6 0 0 0 -1.6,-3.3 c -1,-2 -2.6,-5 -5,-7.3 a 13,13 0 0 0 -4,-2.6 13,13 0 0 0 -5.2,-1.2 z m -3.3,9 c 0,0 -1.2,0 -2.4,0.6 a 13.2,13.2 0 0 0 -3.4,2.3 15.2,15.2 0 0 0 -1.6,1.9 l -0.8,1.3 a 14.3,14.3 0 0 0 -1.3,6 17.3,17.3 0 0 0 0.1,3 0.4,0.4 0 0 0 0,0.1 h 0.1 a 5.6,5.6 0 0 1 0,-0.7 24.5,24.5 0 0 1 1.9,-8 10.8,10.8 0 0 1 2.3,-3 29.2,29.2 0 0 1 3,-2.5 c 1.2,-0.8 2,-1 2,-1 z m 19.6,6.6 z"
   transform="matrix(-0.65331,-0.35276,0.36024,-0.6643,202.2,16.9)"
   id="path24069" />
  </g><g
       id="g24081-9"
       transform="matrix(-0.18858718,-0.99999962,0.99983494,-8.7730709e-4,87.162121,384.64888)"
       inkscape:transform-center-x="29.827541"
       inkscape:transform-center-y="-10.760426">
    <path
   style="fill:url(#linearGradient24073-3);fill-opacity:1;stroke:none;stroke-width:0.194657px;stroke-linecap:butt;stroke-linejoin:miter;stroke-opacity:1"
   d="m 278.02607,-45.921415 c -3.00431,2.532149 -8.37663,5.278301 -13.36392,7.9828 a 2.6333515,3.2887282 6.5713988 0 0 -1.48418,2.072474 c -1.03919,5.623224 0.36348,12.388098 4.76061,20.544116 a 3.0283542,3.7820375 6.5713988 0 1 0.29534,2.709392 l -0.0379,0.257147 c -0.1456,0.845184 -0.80592,1.183724 -1.35255,0.750825 -6.5775,-4.644587 -8.70037,-11.950107 -8.19593,-21.086254 0.0299,-0.917015 -0.43295,-1.204339 -1.03541,-0.829883 a 13.825095,17.265823 6.5713988 0 0 -5.95271,6.970158 6.3200436,7.8929478 6.5713988 0 0 -0.70007,5.17885 40.158611,50.153106 6.5713988 0 0 11.12252,20.93834384 2.1066812,2.6309826 6.5713988 0 1 0.42301,2.41441706 l -0.375,1.5447928 c -0.20346,0.8092682 -0.79994,1.0003213 -1.34657,0.5674217 -7.72669,-7.416247 -10.6953,-11.4109502 -10.78744,-23.0692614 0.0299,-0.917015 -0.4908,-1.240255 -1.12518,-0.792055 -3.06217,2.496233 -4.45253,6.217421 -5.67531,10.2297593 a 5.2008692,6.4952383 6.5713988 0 0 0.59068,5.4187838 49.177839,61.417 6.5713988 0 0 12.68434,13.7684139 1.5800109,1.9732369 6.5713988 0 1 0.66638,2.191273 c -0.1915,0.442463 -0.78798,0.633516 -1.39845,0.348104 -5.67372,-2.4930542 -7.92416,-6.7903822 -10.65344,-12.69477161 -0.74218,-1.67697999 -2.16059,-1.62193919 -2.72111,0.18191278 -5.6332,17.08558983 8.63318,32.11678683 18.61374,26.52438583 0.60246,-0.374456 1.24484,-0.162788 1.45235,0.714487 4.88019,16.876056 19.90598,11.328289 28.70536,0.324755 1.19693,-1.408781 0.70015,-2.465633 -0.87186,-2.225277 -5.31253,0.912122 -9.97669,1.85251 -15.04989,0.854946 a 1.3166758,1.6443641 6.5713988 0 1 -0.97359,-1.820643 c -0.02,-0.293062 0.57652,-0.484115 1.25082,-0.34619 6.16443,1.020092 11.49094,0.584435 17.09468,-2.018055 1.79543,-0.756562 3.9459,-3.350979 4.83958,-5.415803 l 1.46817,-3.39221 c 0.92559,-2.138568 0.30115,-2.9004455 -1.50026,-1.96048 a 55.300382,69.063293 6.5713988 0 1 -22.64056,4.656459 c -0.70621,-0.06418 -1.15709,-0.718311 -0.95364,-1.52758 0.13365,-0.478378 0.71018,-0.962493 1.3326,-1.043887 8.82162,-1.72755 17.72703,-3.3095251 24.40196,-8.8957661 0.60844,-0.5578591 1.14505,-1.6280991 1.20088,-2.4354548 l 0.96525,-9.6920936 c 0.0878,-0.8810994 -0.25938,-1.096593 -0.80996,-0.5028183 A 29.88854,37.327065 6.5713988 0 1 275.74342,3.2760681 1.6458447,2.0554551 6.5713988 0 1 274.28905,1.71831 c -0.0459,-0.4027216 0.383,-0.88492448 1.06926,-1.11380568 a 50.494515,63.061364 6.5713988 0 0 22.5405,-14.26142232 4.4766976,5.590838 6.5713988 0 0 1.47811,-4.602287 l -0.83616,-8.752129 c -0.0918,-0.805443 -0.52869,-0.983108 -1.02143,-0.353418 a 46.741989,58.374926 6.5713988 0 1 -20.84671,16.622711 c -0.68626,0.228881 -1.05334,-0.279675 -0.79203,-1.053028 l 0.10771,-0.588037 c 0.26131,-0.773352 0.82984,-1.917336 1.32257,-2.547026 4.80169,-5.158657 12.5959,-7.056223 14.02794,-17.487666 0.11369,-0.77144 -0.32523,-1.792377 -0.83994,-2.29902 -3.1581,-2.70897 -6.8848,-6.987172 -10.58557,-11.155716 -0.51472,-0.506643 -1.25285,-0.497081 -1.88723,-0.04888 z"
   id="path24077-1" />
    <path
   style="opacity:0.391635;fill:#ffffff;fill-opacity:1;fill-rule:nonzero;stroke:none;stroke-width:0.265707;stroke-linecap:round;stroke-linejoin:round;stroke-dasharray:none;stroke-opacity:1"
   d="m 250.76915,19.768926 a 13.166758,16.443641 6.5713988 0 0 2.55756,1.21348 13.430093,16.772514 6.5713988 0 0 7.02224,0.05569 7.2417167,9.0440026 6.5713988 0 0 2.28218,-1.20285 c 0.90968,-0.745087 0.90167,-1.404955 0.90167,-1.404955 0,0 -0.1077,0.588037 -1.04332,1.223465 -0.57054,0.300712 -1.23086,0.639253 -2.18045,0.798215 a 15.536774,19.403497 6.5713988 0 1 -6.71502,-0.426317 14.615101,18.252442 6.5713988 0 1 -10.26051,-14.7897732 7.1100491,8.8795662 6.5713988 0 1 -0.016,-1.3197366 6.8467139,8.5506934 6.5713988 0 0 -0.0738,1.3575647 14.351766,17.923569 6.5713988 0 0 7.52542,14.4952201 z M 243.3175,3.9161412 Z m 24.9018,25.5629608 a 12.179251,15.210368 6.5713988 0 0 2.58948,1.139736 21.264313,26.55648 6.5713988 0 0 5.93899,0.693027 27.913526,34.860519 6.5713988 0 0 9.68144,-1.848685 3.6208583,4.5220013 6.5713988 0 0 1.35854,-0.934227 0.59250409,0.73996385 6.5713988 0 0 0.18552,-0.25906 l -0.18552,0.25906 c -0.30722,0.370631 -0.6663,0.521943 -1.38447,0.824568 -2.62932,0.987356 -4.87563,1.089787 -9.65753,1.115073 A 23.370995,29.187463 6.5713988 0 1 270.9863,29.69991 c -2.36404,-0.81267 -4.27325,-1.997885 -5.48424,-3.778787 a 4.9375341,6.1663654 6.5713988 0 1 -0.9357,-2.077789 c -0.25938,-1.096593 -0.036,-1.612799 -0.036,-1.612799 0,0 -0.31319,0.554034 -0.1755,1.762199 a 4.9375341,6.1663654 6.5713988 0 0 0.80803,2.372764 8.69006,10.852803 6.5713988 0 0 3.05637,3.113604 z m -5.72964,-4.398915 c 0,0 2.87049,-7.480205 5.04075,-15.207994 a 370.90756,463.21737 6.5713988 0 0 11.63886,-52.838544 c 0,0 -1.76334,6.109252 -3.06384,12.505829 l -0.79388,3.530135 -0.64238,-0.211668 a 4.8717003,6.0841472 6.5713988 0 1 -2.13667,-2.355551 l -0.32321,-0.949106 a 7.0442153,8.797348 6.5713988 0 1 -0.65645,-3.401351 8.2950573,10.359494 6.5713988 0 1 0.5884,-3.564138 c 0,0 -0.63834,1.474874 -0.79388,3.530135 a 6.7150464,8.386257 6.5713988 0 0 0.59261,3.548838 5.1350354,6.4130201 6.5713988 0 0 1.05141,2.149621 3.423357,4.2753467 6.5713988 0 0 1.67181,1.224955 l 0.70621,0.06418 a 352.8691,440.68958 6.5713988 0 1 -8.65493,36.4472487 z m 7.46493,-5.376485 c 1.33066,0.826058 2.94259,1.171827 4.70813,1.332279 a 49.375341,61.663654 6.5713988 0 0 5.8093,0.144731 24.161,30.174082 6.5713988 0 0 11.2634,-3.299119 11.389245,14.22375 6.5713988 0 0 2.36993,-2.083948 4.6083651,5.7552744 6.5713988 0 0 0.64634,-0.815006 l -0.0958,0.221231 -0.60844,0.557859 c -0.51867,0.520031 -1.21689,1.115718 -2.3899,1.790887 -2.91656,1.651049 -6.34187,2.612052 -11.15568,2.711081 a 61.225423,76.462931 6.5713988 0 1 -5.77739,-0.218474 13.825095,17.265823 6.5713988 0 1 -5.44028,-1.50612 5.9250409,7.3996385 6.5713988 0 1 -2.35015,-3.049423 c 0,0 0.28734,2.049524 2.12673,3.565629 l 0.83591,0.612477 z m -12.397,-11.7188906 a 8.0975559,10.112839 6.5713988 0 0 3.14807,1.20583 c 2.29819,0.116887 3.52703,-1.3656372 3.52703,-1.3656372 0,0 -1.45428,1.1554589 -3.44525,0.6679407 a 10.533406,13.154913 6.5713988 0 1 -4.60245,-2.7635881 c -1.26084,-1.156949 -2.45785,-2.4613855 -3.62295,-3.8395656 a 18.235959,22.774443 6.5713988 0 1 -5.33898,-15.4768392 8.69006,10.852803 6.5713988 0 1 0.0797,-1.540967 l -0.0698,0.33089 a 8.360891,10.441712 6.5713988 0 0 -0.0997,1.247905 17.775123,22.198916 6.5713988 0 0 4.9041,16.1424452 34.891908,43.575649 6.5713988 0 0 3.64889,3.9492249 z M 247.33472,-15.201759 Z m 24.76807,23.3281213 a 13.166758,16.443641 6.5713988 0 0 6.80083,1.4151636 32.456057,40.533575 6.5713988 0 0 6.18431,-1.4000624 19.684303,24.583244 6.5713988 0 0 10.05635,-6.1066943 6.9783815,8.7151298 6.5713988 0 0 1.52208,-2.32962053 2.5675177,3.20651 6.5713988 0 0 0.23537,-0.88301197 2.5675177,3.20651 6.5713988 0 1 -0.26131,0.77335267 c -0.31917,0.73743705 -0.8119,1.36712733 -1.69564,2.22187373 a 21.066812,26.309826 6.5713988 0 1 -10.00052,5.2993386 37.986096,47.439905 6.5713988 0 1 -5.99878,1.1410032 c -2.66326,0.2178284 -4.69811,0.17086 -6.58736,-0.7212923 -1.9471,-0.9280678 -2.60548,-2.4594729 -2.60548,-2.4594729 0,0 0.32523,1.7923768 2.35015,3.0494226 z m -7.65898,-11.3036257 c 0.40498,0.2514091 0.8738,0.3553309 1.25284,0.4970807 1.81144,0.5631744 2.61736,-0.62055 2.61736,-0.62055 0,0 -1.03136,0.856659 -2.45179,0.068429 -1.53614,-0.8600617 -2.57955,-2.3498137 -4.13767,-4.346209 -1.41647,-1.8149048 -2.59555,-3.6695503 -3.77462,-5.5241953 -2.71926,-4.40125 -3.87046,-8.016182 -3.39778,-11.652151 a 5.9250409,7.3996385 6.5713988 0 1 0.8338,-2.944011 2.9625205,3.6998193 6.5713988 0 1 0.53063,-0.886837 l 0.0579,0.03592 a 0.65833788,0.82218206 6.5713988 0 0 -0.17954,0.07566 l -0.49273,0.62969 a 5.8592071,7.3174203 6.5713988 0 0 -1.10311,3.057495 c -0.5884,3.564139 0.30747,7.76902 3.0786,12.389589 a 50.297014,62.814709 6.5713988 0 0 3.71079,5.6716822 c 1.10126,1.5256676 2.27234,2.7204447 3.48729,3.4746722 z m 30.30788,18.1599024 z m 0,0 z m -47.41697,-30.184398 z m 27.42095,10.7542855 c 1.09924,0.6823963 2.50569,0.9941615 4.07771,0.7538052 l 1.30868,-0.310275 a 15.865943,19.814588 6.5713988 0 0 4.83966,-2.7025864 26.201848,32.722846 6.5713988 0 0 7.24741,-7.7568993 c 0.59447,-1.034324 0.91363,-1.771761 1.16897,-2.361711 a 2.9625205,3.6998193 6.5713988 0 0 0.20346,-0.809268 2.9625205,3.6998193 6.5713988 0 1 -0.26132,0.773353 c -0.25533,0.589949 -0.63235,1.291471 -1.31061,2.18022 -1.70162,2.405277 -3.9299,4.670716 -7.3771,7.2086027 a 16.655948,20.801206 6.5713988 0 1 -4.62821,2.5531865 l -1.27676,0.2365313 a 8.4267248,10.52393 6.5713988 0 1 -3.99989,-0.4248273 c -1.22093,-0.5708244 -1.78154,-1.4801893 -1.78154,-1.4801893 0,0 0.25938,1.0965929 1.59004,1.9226516 l 0.23142,0.1436623 z m -3.63323,-13.4823565 0.75211,0.466903 c 0.50073,0.03018 0.80196,-0.15705 0.80196,-0.15705 0,0 -0.26931,0.113485 -0.70621,-0.06418 -0.34713,-0.215493 -0.57855,-0.359156 -0.9197,-0.758052 a 14.022597,17.512478 6.5713988 0 1 -2.48582,-3.414317 8.9533951,11.181676 6.5713988 0 1 -1.01351,-2.406767 c -0.69232,-2.300932 -0.75026,-5.050065 -0.8381,-6.882182 a 44.306139,55.332853 6.5713988 0 1 -0.11183,-3.811723 1.5141771,1.8910187 6.5713988 0 1 0.0698,-0.33089 l -0.0319,0.07374 a 10.928409,13.648222 6.5713988 0 0 -0.0937,1.064502 32.653559,40.78023 6.5713988 0 0 -0.12758,3.008192 c -0.0598,1.83403 -0.0916,4.62099 0.56281,7.17907 a 8.5583924,10.688367 6.5713988 0 0 1.48435,3.35396 8.5583924,10.688367 6.5713988 0 0 2.62544,2.752535 z m 4.78172,-5.451718 c 0,0 0.69426,0.430987 1.58002,0.419512 a 8.69006,10.852803 6.5713988 0 0 2.70115,-0.474976 10.006736,12.497167 6.5713988 0 0 1.53209,-0.82648 l 0.87776,-0.671344 a 9.4142317,11.757203 6.5713988 0 0 2.66712,-3.95772 11.389245,14.22375 6.5713988 0 0 0.89966,-2.248226 0.26333515,0.32887282 6.5713988 0 0 0.0319,-0.07374 l -0.0579,-0.03592 a 3.6866921,4.6042195 6.5713988 0 1 -0.22342,0.516206 16.129278,20.14346 6.5713988 0 1 -3.65259,5.217101 7.1100491,8.8795662 6.5713988 0 1 -2.28817,1.386252 19.223466,24.007716 6.5713988 0 1 -2.53356,0.766125 c -0.94959,0.158962 -1.47626,0.01912 -1.47626,0.01912 z m -9.23301,-11.906541 z"
   id="path24079-2" />
  </g><ellipse
       style="opacity:0.320334;fill:url(#radialGradient41293);fill-opacity:1;stroke-width:0.264583;stroke-linecap:round"
       id="path41283"
       cx="70.343918"
       cy="164.28435"
       rx="8.8169031"
       ry="5.4491458" /><ellipse
       style="opacity:0.320334;fill:url(#radialGradient41293-4);fill-opacity:1;stroke-width:0.264583;stroke-linecap:round"
       id="path41283-4"
       cx="-8.6934652"
       cy="196.89235"
       rx="8.8169031"
       ry="5.4491458"
       transform="rotate(-19.793091)" /><ellipse
       style="opacity:0.320334;fill:url(#radialGradient41293-4-5);fill-opacity:1;stroke-width:0.264583;stroke-linecap:round"
       id="path41283-4-6"
       cx="21.775694"
       cy="184.85173"
       rx="8.8169031"
       ry="5.4491458"
       transform="rotate(-12.584211)" /><ellipse
       style="opacity:0.320334;fill:url(#radialGradient41293-4-5-1);fill-opacity:1;stroke-width:0.264583;stroke-linecap:round"
       id="path41283-4-6-3"
       cx="-39.316624"
       cy="207.48111"
       rx="8.8169031"
       ry="5.4491458"
       transform="rotate(-28.189772)" /><ellipse
       style="opacity:0.320334;fill:url(#radialGradient41293-4-5-2);fill-opacity:1;stroke-width:0.264583;stroke-linecap:round"
       id="path41283-4-6-1"
       cx="81.540222"
       cy="133.16489"
       rx="8.8169031"
       ry="5.4491458"
       transform="rotate(-12.584211)" /><ellipse
       style="opacity:0.320334;fill:url(#radialGradient41293-4-5-5);fill-opacity:1;stroke-width:0.264583;stroke-linecap:round"
       id="path41283-4-6-7"
       cx="115.61721"
       cy="126.76894"
       rx="8.8169031"
       ry="5.4491458"
       transform="rotate(-1.9170008)" /><ellipse
       style="opacity:0.320334;fill:url(#radialGradient41293-4-5-6);fill-opacity:1;stroke-width:0.264583;stroke-linecap:round"
       id="path41283-4-6-9"
       cx="132.5383"
       cy="130.98056"
       rx="8.8169031"
       ry="5.4491458"
       transform="rotate(2.6166835)"
       inkscape:transform-center-x="-1.245451"
       inkscape:transform-center-y="-2.2376323" /><ellipse
       style="opacity:0.320334;fill:url(#radialGradient41293-4-5-3);fill-opacity:1;stroke-width:0.264583;stroke-linecap:round"
       id="path41283-4-6-5"
       cx="162.47781"
       cy="144.81648"
       rx="8.8169031"
       ry="5.4491458"
       transform="rotate(-1.0265807)" /><ellipse
       style="opacity:0.320334;fill:url(#radialGradient41293-4-5-25);fill-opacity:1;stroke-width:0.264583;stroke-linecap:round"
       id="path41283-4-6-4"
       cx="218.98898"
       cy="90.972321"
       rx="8.8169031"
       ry="5.4491458"
       transform="rotate(18.648473)" /><ellipse
       style="opacity:0.320334;fill:url(#radialGradient41293-4-5-4);fill-opacity:1;stroke-width:0.264583;stroke-linecap:round"
       id="path41283-4-6-78"
       cx="242.4006"
       cy="52.331322"
       rx="8.8169031"
       ry="5.4491458"
       transform="rotate(31.022303)" /></g></svg>
